<?xml version="1.0" encoding="utf-8"?>
<!-- Generator: Adobe Illustrator 16.0.4, SVG Export Plug-In . SVG Version: 6.00 Build 0)  -->
<!DOCTYPE svg PUBLIC "-//W3C//DTD SVG 1.1//EN" "http://www.w3.org/Graphics/SVG/1.1/DTD/svg11.dtd">
<svg version="1.1" id="Layer_1" xmlns="http://www.w3.org/2000/svg" xmlns:xlink="http://www.w3.org/1999/xlink" x="0px" y="0px"
	 width="100px" height="100px" viewBox="0 0 100 100" enable-background="new 0 0 100 100" xml:space="preserve">
<g>
	<path fill="#CD722E" d="M49.7,29.1c2.3,0,4.1-1.1,5-2.6c0.2-0.3,0.3-0.7,0.3-1.2c0-4.3-1.6-7.6-5.1-7.6c-2.9,0-5,2.6-5,6.1
		C44.9,26.9,46.8,29.1,49.7,29.1z"/>
	<path fill="#CD722E" d="M16.9,38.5L50,64.3l33.1-25.8l4.3-3.4l8.2-6.4L50,0.8L4.4,28.7l8.2,6.4L16.9,38.5z M50.1,15
		c5.1,0,8.3,4.2,8.3,10.6c0,5.5-1.9,9.4-4.3,11.8c-1.9,1.9-4.6,3.1-7.3,3.4C45.5,41,44.5,41,43.6,41v-2.8c0.7,0.1,1.6,0,2.7-0.1
		c2-0.3,3.8-1.1,5.3-2.4c1.7-1.5,2.9-3.7,3.3-6.7h-0.1c-1.4,1.7-3.4,2.7-5.9,2.7c-4.5,0-7.4-3.4-7.4-7.7C41.5,19.2,45,15,50.1,15z"
		/>
	<polygon fill="#CD722E" points="50,88.2 12.3,58.7 4.4,63.6 50,99.2 95.6,63.6 87.7,58.7 	"/>
	<polygon fill="#CD722E" points="50,70.8 12.3,41.3 4.4,46.1 50,81.7 95.6,46.1 87.7,41.3 	"/>
</g>
</svg>
