<?xml version="1.0" encoding="utf-8"?>
<!-- Generator: Adobe Illustrator 16.0.4, SVG Export Plug-In . SVG Version: 6.00 Build 0)  -->
<!DOCTYPE svg PUBLIC "-//W3C//DTD SVG 1.1//EN" "http://www.w3.org/Graphics/SVG/1.1/DTD/svg11.dtd">
<svg version="1.1" id="Layer_1" xmlns="http://www.w3.org/2000/svg" xmlns:xlink="http://www.w3.org/1999/xlink" x="0px" y="0px"
	 width="940px" height="424px" viewBox="0 0 940 424" enable-background="new 0 0 940 424" xml:space="preserve">
<image overflow="visible" width="940" height="424" xlink:href="logo_large1.png" >
</image>
<g>
	<path fill="#7E2673" d="M930.7,161.3H664.7C641.9,74.5,562.9,10.5,469,10.5c-93.9,0-172.9,64-195.7,150.8H7.3v106.1h266.9
		C298,352.5,376.2,415,469,415c92.8,0,171-62.5,194.8-147.6h266.9V161.3z"/>
	<g>
		<path fill="#FFFFFF" d="M538.7,127.5c0-9.3-6.4-14.5-20.6-14.5h-27.3v28.5h27.9C534.5,141.5,538.7,135.4,538.7,127.5z"/>
		<path fill="#FFFFFF" d="M536.3,91.5c0-7.5-3.7-12.6-19.6-12.6h-25.9v24.9h29.8C530.4,103.9,536.3,100.2,536.3,91.5z"/>
		<path fill="#FFFFFF" d="M445,91.5c0-7.5-3.7-12.6-19.6-12.6h-25.9v24.9h29.8C439.1,103.9,445,100.2,445,91.5z"/>
		<path fill="#FFFFFF" d="M447.4,127.5c0-9.3-6.4-14.5-20.6-14.5h-27.3v28.5h27.9C443.2,141.5,447.4,135.4,447.4,127.5z"/>
		<path fill="#FFFFFF" d="M58.5,211.3c1.6-0.8,2.8-1.9,3.7-3.4c0.8-1.5,1.3-3.2,1.3-5.1c0-2.4-0.7-4.5-2.1-6.3
			c-1.4-1.8-3-2.9-4.9-3.4c-1.8-0.4-4.6-0.7-8.3-0.7H34.8v5h4.9v30.1h-4.9v5h13.7c3,0,5.4-0.2,7.2-0.5c1.8-0.3,3.4-0.9,4.9-1.8
			c1.5-0.9,2.7-2.1,3.6-3.8c0.9-1.6,1.3-3.4,1.3-5.4c0-2.3-0.6-4.3-1.8-6.1C62.4,213.3,60.7,212,58.5,211.3z M45.8,197.5h3.8
			c5.2,0,7.8,1.9,7.8,5.7c0,2-0.6,3.5-1.7,4.5c-1.1,1-3.2,1.5-6.1,1.5h-3.8V197.5z M58,225c-0.9,1.1-2,1.8-3.4,2.1
			c-1.4,0.3-3.6,0.4-6.6,0.4h-2.3v-13.5h3.5c2.4,0,4.3,0.2,5.6,0.5c1.3,0.4,2.4,1.1,3.2,2.1c0.8,1.1,1.3,2.4,1.3,4
			C59.4,222.5,58.9,223.9,58,225z"/>
		<path fill="#FFFFFF" d="M94.9,207.9c-3.1-2.7-6.5-4.1-10.2-4.1c-3.8,0-7.2,1.4-10.2,4.2c-3,2.8-4.4,6.3-4.4,10.6
			c0,4.5,1.5,8.1,4.5,10.8c3,2.7,6.7,4,11,4c2.8,0,5.4-0.6,7.9-1.8c2.5-1.2,4.6-3,6.2-5.4l-4.9-2.1c-2.2,3.1-5.3,4.6-9.1,4.6
			c-2.6,0-4.8-0.8-6.5-2.4c-1.7-1.6-2.7-3.7-3.1-6.3h23.5C99.6,214.7,98,210.6,94.9,207.9z M76.4,216c0.3-2.3,1.3-4.1,2.9-5.6
			c1.6-1.4,3.4-2.2,5.6-2.2c2.4,0,4.4,0.8,6.1,2.4c1.7,1.6,2.7,3.4,3.1,5.3H76.4z"/>
		<path fill="#FFFFFF" d="M130.9,214.1c0-2.4-0.2-4.2-0.6-5.4c-0.4-1.2-1.1-2.3-2.3-3.1c-1.2-0.9-2.7-1.3-4.5-1.3
			c-2.9,0-6.1,1.3-9.6,3.8v-3.4h-10.4v4.9h4.9v18.2h-4.9v4.9h15.2v-4.9h-4.8v-15c3.1-2.4,5.8-3.6,8.2-3.6c0.9,0,1.7,0.3,2.3,1
			c0.6,0.6,1,2,1,4.1v18.3h10.2v-4.9h-4.7V214.1z"/>
		<path fill="#FFFFFF" d="M152.4,228.4c-2.8,0-4.9-1-6.4-3c-1.5-2-2.2-4.3-2.2-7c0-2.8,0.8-5.1,2.3-6.9c1.5-1.7,3.5-2.6,6-2.6
			c1.8,0,3.5,0.5,4.9,1.6c1.4,1.1,2.2,2.6,2.5,4.6h4.9v-10.6h-4.9v2c-2.1-1.8-4.8-2.7-7.9-2.7c-3.6,0-6.8,1.4-9.6,4.1
			c-2.8,2.7-4.2,6.2-4.2,10.4c0,3.9,1.3,7.4,3.8,10.5c2.5,3,6,4.5,10.5,4.5c6.3,0,10.6-2.8,13.1-8.3l-4.5-2.1
			C159,226.6,156.2,228.4,152.4,228.4z"/>
		<path fill="#FFFFFF" d="M195.4,213.6c0-2.4-0.2-4.3-0.6-5.5c-0.4-1.3-1.2-2.3-2.4-3c-1.2-0.8-2.7-1.2-4.6-1.2c-3,0-6.1,1.3-9.4,4
			v-15.4h-10.5v4.9h5.1v30.4h-5.1v4.9h15.4v-4.9h-4.9v-15.3c3.3-2.4,6-3.6,8.1-3.6c0.8,0,1.5,0.2,2.2,0.7c0.6,0.5,1,1.1,1.1,1.8
			c0.1,0.7,0.2,2.1,0.2,4.2v17.1h10.3v-4.9h-4.8V213.6z"/>
		<rect x="202.3" y="216" fill="#FFFFFF" width="17.3" height="5.5"/>
		<path fill="#FFFFFF" d="M246.4,211.3c1.6-0.8,2.8-1.9,3.7-3.4c0.8-1.5,1.3-3.2,1.3-5.1c0-2.4-0.7-4.5-2.1-6.3
			c-1.4-1.8-3-2.9-4.9-3.4c-1.8-0.4-4.6-0.7-8.3-0.7h-13.4v5h4.9v30.1h-4.9v5h13.7c3,0,5.4-0.2,7.2-0.5c1.8-0.3,3.4-0.9,4.9-1.8
			c1.5-0.9,2.7-2.1,3.6-3.8c0.9-1.6,1.3-3.4,1.3-5.4c0-2.3-0.6-4.3-1.8-6.1C250.4,213.3,248.7,212,246.4,211.3z M233.8,197.5h3.8
			c5.2,0,7.8,1.9,7.8,5.7c0,2-0.6,3.5-1.7,4.5c-1.1,1-3.2,1.5-6.1,1.5h-3.8V197.5z M246,225c-0.9,1.1-2,1.8-3.4,2.1
			c-1.4,0.3-3.6,0.4-6.6,0.4h-2.3v-13.5h3.5c2.4,0,4.3,0.2,5.6,0.5c1.3,0.4,2.4,1.1,3.2,2.1c0.8,1.1,1.3,2.4,1.3,4
			C247.3,222.5,246.9,223.9,246,225z"/>
		<path fill="#FFFFFF" d="M281.9,214.8c0-2.3-0.1-3.9-0.4-5c-0.3-1-0.8-2-1.5-2.9c-0.8-0.9-1.9-1.6-3.4-2.2
			c-1.5-0.6-3.3-0.9-5.4-0.9c-5.7,0-9.7,2.2-12.1,6.5l5.3,1.4c1.2-2.2,3.2-3.3,6-3.3c1.6,0,2.9,0.3,3.9,0.9c1,0.6,1.6,1.3,1.9,2.1
			c0.3,0.8,0.4,1.9,0.4,3.3v2.8c-2.4-1.6-5-2.4-7.6-2.4c-2.8,0-5.2,0.9-7.2,2.6c-2,1.7-3,3.9-3,6.5c0,2.6,0.9,4.7,2.8,6.4
			c1.9,1.7,4.1,2.5,6.6,2.5c3.3,0,6.2-1.3,8.9-3.9v3.4h9.6v-4.9h-4.7V214.8z M276.4,225.5c-2.4,2.2-4.9,3.4-7.5,3.4
			c-1.5,0-2.8-0.4-3.7-1.3c-0.9-0.9-1.3-2-1.3-3.3c0-1.4,0.5-2.6,1.5-3.4c1-0.9,2.3-1.3,3.8-1.3c2.4,0,4.8,0.9,7.2,2.8V225.5z"/>
		<path fill="#FFFFFF" d="M304.7,204.7c-1.2,0.3-2.4,1.1-3.5,2.1c-1.1,1.1-2,2.4-2.6,4.1v-6.3h-10v4.9h5.6v18.2h-5.6v4.9h17.2v-4.9
			h-6.1v-6.2c0-3.8,0.3-6.5,1-7.9c0.7-1.5,1.7-2.5,3.1-3c1.4-0.6,3.5-0.8,6.3-0.8h1.1v-5.5h-1.4
			C307.6,204.2,305.9,204.4,304.7,204.7z"/>
		<path fill="#FFFFFF" d="M354.1,220.6l-8.2-11.1c3-1.2,5.2-2.5,6.5-3.9c1.3-1.4,2-3.1,2-5.3c0-2.4-0.9-4.5-2.8-6.1
			c-1.9-1.6-4.1-2.5-6.8-2.5c-2.6,0-4.9,0.8-6.8,2.5c-2,1.7-2.9,3.8-2.9,6.4c0,2.3,0.9,4.7,2.7,7c-6.1,2.7-9.2,6.7-9.2,12
			c0,3.9,1.4,7.1,4.1,9.7c2.7,2.6,6.1,3.9,10.3,3.9c3.6,0,7.2-1.4,10.7-4.2l2.7,3.5h9.2v-5h-6.1l-2.1-2.7c1.6-2,2.9-4.9,4-8.6h4.2
			v-4.9h-8.2C356.6,215,355.6,218.1,354.1,220.6z M341.8,197.6c0.8-0.7,1.8-1.1,3-1.1c1.3,0,2.4,0.4,3.1,1.1
			c0.7,0.8,1.1,1.6,1.1,2.6c0,1-0.4,2-1.3,2.8c-0.8,0.8-2.4,1.8-4.7,2.7l-0.3-0.5c-1.4-2.1-2.1-3.7-2.1-4.7
			C340.6,199.3,341,198.4,341.8,197.6z M343.6,228.2c-2.5,0-4.6-0.9-6.4-2.6c-1.8-1.8-2.6-3.8-2.6-6.2c0-3.5,2.1-6.2,6.2-8.1
			l9.8,13.7C348.5,227.2,346.1,228.2,343.6,228.2z"/>
		<path fill="#FFFFFF" d="M407.6,197h5v-4.5h-20.5v4.5h4.9l-11,30.6h-4.9v5h15.8v-5h-4.9l3.1-9.1h14.5l3,9.1h-5v5h15.7v-5h-4.5
			L407.6,197z M396.6,213.8l5.6-16.8h0.5l5.3,16.8H396.6z"/>
		<path fill="#FFFFFF" d="M451.9,214.1c0-2.4-0.2-4.2-0.6-5.4c-0.4-1.2-1.1-2.3-2.3-3.1c-1.2-0.9-2.7-1.3-4.5-1.3
			c-2.9,0-6.1,1.3-9.6,3.8v-3.4h-10.4v4.9h4.9v18.2h-4.9v4.9h15.2v-4.9h-4.8v-15c3.1-2.4,5.8-3.6,8.2-3.6c0.9,0,1.7,0.3,2.3,1
			c0.6,0.6,1,2,1,4.1v18.3h10.2v-4.9h-4.7V214.1z"/>
		<path fill="#FFFFFF" d="M485.8,214.1c0-2.4-0.2-4.2-0.5-5.4c-0.4-1.2-1.1-2.3-2.3-3.1c-1.2-0.9-2.7-1.3-4.5-1.3
			c-2.9,0-6.1,1.3-9.6,3.8v-3.4h-10.4v4.9h4.9v18.2h-4.9v4.9h15.2v-4.9h-4.8v-15c3.1-2.4,5.8-3.6,8.2-3.6c0.9,0,1.7,0.3,2.3,1
			c0.6,0.6,1,2,1,4.1v18.3h10.2v-4.9h-4.7V214.1z"/>
		<path fill="#FFFFFF" d="M518,204.6h-10.4v4.9h4.9v15.1c-2.9,2.4-5.6,3.6-8.1,3.6c-0.8,0-1.6-0.2-2.1-0.7c-0.6-0.5-0.9-1.1-1-1.8
			c-0.1-0.7-0.2-2.1-0.2-4.2v-17h-9.4v4.9h4v12.9c0,2.9,0.2,5,0.6,6.3c0.4,1.3,1.2,2.4,2.4,3.2c1.2,0.8,2.8,1.2,4.6,1.2
			c2.9,0,6-1.2,9.2-3.7v3.2h10.3v-4.9H518V204.6z"/>
		<path fill="#FFFFFF" d="M549.3,214.8c0-2.3-0.1-3.9-0.4-5c-0.3-1-0.8-2-1.5-2.9c-0.8-0.9-1.9-1.6-3.4-2.2
			c-1.5-0.6-3.3-0.9-5.4-0.9c-5.7,0-9.7,2.2-12.1,6.5l5.3,1.4c1.2-2.2,3.2-3.3,6-3.3c1.6,0,2.9,0.3,3.9,0.9c1,0.6,1.6,1.3,1.9,2.1
			c0.3,0.8,0.4,1.9,0.4,3.3v2.8c-2.4-1.6-5-2.4-7.6-2.4c-2.8,0-5.2,0.9-7.2,2.6c-2,1.7-3,3.9-3,6.5c0,2.6,0.9,4.7,2.8,6.4
			c1.9,1.7,4.1,2.5,6.6,2.5c3.3,0,6.2-1.3,8.9-3.9v3.4h9.6v-4.9h-4.7V214.8z M543.9,225.5c-2.4,2.2-4.9,3.4-7.5,3.4
			c-1.5,0-2.8-0.4-3.7-1.3c-0.9-0.9-1.3-2-1.3-3.3c0-1.4,0.5-2.6,1.5-3.4c1-0.9,2.3-1.3,3.8-1.3c2.4,0,4.8,0.9,7.2,2.8V225.5z"/>
		<polygon fill="#FFFFFF" points="566.4,192.4 556,192.4 556,197.3 561,197.3 561,227.7 556,227.7 556,232.6 570.7,232.6 
			570.7,227.7 566.4,227.7 		"/>
		<path fill="#FFFFFF" d="M618.4,224.8c-2.5,2-5.4,3-8.5,3c-3.8,0-7-1.4-9.8-4.3c-2.7-2.9-4.1-6.6-4.1-11.1c0-4.4,1.3-8.1,3.9-10.9
			c2.6-2.9,5.9-4.3,9.9-4.3c2.7,0,5.2,0.7,7.6,2.2c2.4,1.4,4.2,3.5,5.3,6.1h5.2v-12.9h-5.2v3.7c-3.6-2.9-8-4.3-13.3-4.3
			c-5.9,0-10.8,1.9-14.5,5.7c-3.7,3.8-5.5,8.8-5.5,15.2c0,5.8,1.8,10.7,5.5,14.6c3.7,3.9,8.6,5.9,14.6,5.9c4.6,0,8.8-1.2,12.3-3.7
			c3.6-2.5,5.9-5.9,7.1-10.4l-5.2-2.9C622.7,219.9,620.9,222.8,618.4,224.8z"/>
		<path fill="#FFFFFF" d="M648.8,203.9c-4.1,0-7.6,1.4-10.4,4.1c-2.9,2.8-4.3,6.3-4.3,10.6c0,4.3,1.4,7.9,4.2,10.6
			c2.8,2.8,6.3,4.2,10.5,4.2c4,0,7.5-1.4,10.4-4.1c2.9-2.7,4.3-6.3,4.3-10.7c0-4.4-1.4-7.9-4.3-10.7
			C656.2,205.2,652.8,203.9,648.8,203.9z M655.1,225.4c-1.7,1.8-3.8,2.7-6.3,2.7c-2.5,0-4.6-0.9-6.3-2.6c-1.7-1.8-2.6-4-2.6-6.8
			c0-2.7,0.8-4.9,2.5-6.7c1.7-1.8,3.8-2.7,6.4-2.7c2.5,0,4.6,0.9,6.3,2.7c1.7,1.8,2.6,4,2.6,6.8
			C657.6,221.3,656.8,223.6,655.1,225.4z"/>
		<path fill="#FFFFFF" d="M667.3,204.6v4.9h4.9v18.2h-4.9v4.9h15.2v-4.9h-4.8v-15c3.1-2.4,5.8-3.6,8.2-3.6c0.9,0,1.7,0.3,2.3,1
			c0.6,0.6,1,2,1,4.1v18.3h10.2v-4.9h-4.7v-13.6c0-2.4-0.2-4.2-0.6-5.4c-0.4-1.2-1.1-2.3-2.3-3.1c-1.2-0.9-2.7-1.3-4.5-1.3
			c-2.9,0-6.1,1.3-9.6,3.8v-3.4H667.3z"/>
		<path fill="#FFFFFF" d="M716.1,227.7h-5.3v-18.2h4.8v-4.9h-4.8v-4c0-1.9,0.2-3.1,0.5-3.6c0.3-0.6,0.9-0.8,1.7-0.8
			c1.2,0,1.9,0.9,2.1,2.7l4.9-0.8c-0.7-4.3-3.1-6.4-7.4-6.4c-2,0-3.7,0.6-5.1,1.9c-1.4,1.3-2.2,3.6-2.2,7v4h-4.1v4.9h4.1v18.2h-4.1
			v4.9h14.9V227.7z"/>
		<path fill="#FFFFFF" d="M725,229.4c3,2.7,6.7,4,11,4c2.8,0,5.4-0.6,7.9-1.8c2.5-1.2,4.6-3,6.1-5.4l-4.9-2.1
			c-2.2,3.1-5.3,4.6-9.1,4.6c-2.6,0-4.8-0.8-6.5-2.4c-1.7-1.6-2.7-3.7-3.1-6.3h23.5c-0.1-5.4-1.7-9.4-4.8-12.1
			c-3.1-2.7-6.5-4.1-10.2-4.1c-3.8,0-7.2,1.4-10.2,4.2c-3,2.8-4.4,6.3-4.4,10.6C720.5,223.1,722,226.7,725,229.4z M729.6,210.5
			c1.6-1.4,3.4-2.2,5.6-2.2c2.4,0,4.4,0.8,6.1,2.4c1.7,1.6,2.7,3.4,3.1,5.3h-17.6C727.1,213.7,728.1,211.9,729.6,210.5z"/>
		<path fill="#FFFFFF" d="M770.8,227.7h-6.1v-6.2c0-3.8,0.3-6.5,1-7.9c0.7-1.5,1.7-2.5,3.1-3c1.4-0.6,3.5-0.8,6.3-0.8h1.1v-5.5h-1.4
			c-2.1,0-3.8,0.2-5,0.5c-1.2,0.3-2.4,1.1-3.5,2.1c-1.1,1.1-2,2.4-2.6,4.1v-6.3h-10v4.9h5.6v18.2h-5.6v4.9h17.2V227.7z"/>
		<path fill="#FFFFFF" d="M780.7,229.4c3,2.7,6.7,4,11,4c2.8,0,5.4-0.6,7.9-1.8c2.5-1.2,4.6-3,6.2-5.4l-4.9-2.1
			c-2.2,3.1-5.3,4.6-9.1,4.6c-2.6,0-4.8-0.8-6.5-2.4c-1.7-1.6-2.7-3.7-3.1-6.3h23.5c-0.1-5.4-1.7-9.4-4.8-12.1
			c-3.1-2.7-6.5-4.1-10.2-4.1c-3.8,0-7.2,1.4-10.2,4.2c-3,2.8-4.4,6.3-4.4,10.6C776.1,223.1,777.6,226.7,780.7,229.4z M785.2,210.5
			c1.6-1.4,3.4-2.2,5.6-2.2c2.4,0,4.4,0.8,6.1,2.4c1.7,1.6,2.7,3.4,3.1,5.3h-17.6C782.7,213.7,783.7,211.9,785.2,210.5z"/>
		<path fill="#FFFFFF" d="M824.7,227.7h-4.8v-15c3.1-2.4,5.8-3.6,8.2-3.6c0.9,0,1.7,0.3,2.3,1c0.6,0.6,1,2,1,4.1v18.3h10.2v-4.9
			h-4.7v-13.6c0-2.4-0.2-4.2-0.5-5.4c-0.4-1.2-1.1-2.3-2.3-3.1c-1.2-0.9-2.7-1.3-4.5-1.3c-2.9,0-6.1,1.3-9.6,3.8v-3.4h-10.4v4.9h4.9
			v18.2h-4.9v4.9h15.2V227.7z"/>
		<path fill="#FFFFFF" d="M858.1,233.4c6.3,0,10.6-2.8,13.1-8.3l-4.5-2.1c-1.7,3.7-4.5,5.5-8.4,5.5c-2.8,0-4.9-1-6.4-3
			c-1.5-2-2.2-4.3-2.2-7c0-2.8,0.8-5.1,2.3-6.9c1.5-1.7,3.5-2.6,6-2.6c1.8,0,3.5,0.5,4.9,1.6c1.4,1.1,2.2,2.6,2.5,4.6h4.9v-10.6
			h-4.9v2c-2.1-1.8-4.8-2.7-7.9-2.7c-3.6,0-6.8,1.4-9.6,4.1c-2.8,2.7-4.2,6.2-4.2,10.4c0,3.9,1.3,7.4,3.8,10.5
			C850.2,231.9,853.7,233.4,858.1,233.4z"/>
		<path fill="#FFFFFF" d="M879.3,229.4c3,2.7,6.7,4,11,4c2.8,0,5.4-0.6,7.9-1.8c2.5-1.2,4.6-3,6.2-5.4l-4.9-2.1
			c-2.2,3.1-5.3,4.6-9.1,4.6c-2.6,0-4.8-0.8-6.5-2.4c-1.7-1.6-2.7-3.7-3.1-6.3h23.5c-0.1-5.4-1.7-9.4-4.8-12.1
			c-3.1-2.7-6.5-4.1-10.2-4.1c-3.8,0-7.2,1.4-10.2,4.2c-3,2.8-4.4,6.3-4.4,10.6C874.7,223.1,876.3,226.7,879.3,229.4z M883.9,210.5
			c1.6-1.4,3.4-2.2,5.6-2.2c2.4,0,4.4,0.8,6.1,2.4c1.7,1.6,2.7,3.4,3.1,5.3H881C881.4,213.7,882.3,211.9,883.9,210.5z"/>
		<rect x="355.9" y="266.6" fill="#FFFFFF" width="4.5" height="0.4"/>
		<g>
			<path fill="#FFFFFF" d="M448.8,277.9c-6.5,0-6.5,5.1-6.5,8v85.1c0,2.9,0,8,6.5,8c6.5,0,6.5-5.1,6.5-8v-85.1
				C455.4,283,455.4,277.9,448.8,277.9z"/>
			<path fill="#FFFFFF" d="M671.6,156.4C647.1,67.9,565.9,2.9,469.6,2.9c-96.3,0-177.5,65-202,153.5H3.8v112.1h263.8
				c24.5,88.5,105.7,153.5,202,153.5c96.3,0,177.5-65,202-153.5h263.8V156.4H671.6z M479.1,69.8h38.2c22.1,0,30.6,6.6,30.6,20.4
				c0,10.3-5.7,15.9-16.1,17.9v0.3c13,1.6,19.2,10.1,19.2,19.7c0,12.1-8.9,22.5-30.8,22.5h-41V69.8z M387.8,69.8h38.2
				c22.1,0,30.6,6.6,30.6,20.4c0,10.3-5.7,15.9-16.1,17.9v0.3c13,1.6,19.2,10.1,19.2,19.7c0,12.1-8.9,22.5-30.8,22.5h-41V69.8z
				 M421.9,385.8h-34.1v-10.7l21.5-63.1c1.9-5.4,2.5-10.2,2.5-15.8v-9.1c0-6.4-2.1-9.4-6.4-9.4s-6.4,3-6.4,9.4v13.2h-9.9v-13.4
				c0-11.5,5.1-17.2,16.7-17.2c10.5,0,15.8,6.5,15.8,17v11.2c0,4.3-1,10.5-2.5,15.1l-22.1,63.7h24.8V385.8z M465.3,369.8
				c0,14.5-9.2,17-16.4,17c-7.2,0-16.4-2.5-16.4-17v-82.8c0-14.5,9.2-17,16.4-17c7.2,0,16.4,2.5,16.4,17V369.8z M499.8,385.8h-10.5
				V282.8c-2.4,2.1-7.5,5.6-10.5,7.2v-10.7c3.8-1.8,9.2-5.9,11.9-8.4h9.1V385.8z M554.1,282l-17.2,103.8h-10.5l18.5-106.1h-25.5
				v-8.9h34.7V282z M927.2,260.4H673.7H265.5H12v-95.7h253.5h408.2h253.5V260.4z"/>
		</g>
	</g>
</g>
</svg>
