<?xml version="1.0" encoding="utf-8"?>
<!-- Generator: Adobe Illustrator 16.0.4, SVG Export Plug-In . SVG Version: 6.00 Build 0)  -->
<!DOCTYPE svg PUBLIC "-//W3C//DTD SVG 1.1//EN" "http://www.w3.org/Graphics/SVG/1.1/DTD/svg11.dtd">
<svg version="1.1" id="Layer_1" xmlns="http://www.w3.org/2000/svg" xmlns:xlink="http://www.w3.org/1999/xlink" x="0px" y="0px"
	 width="940px" height="424px" viewBox="0 0 940 424" enable-background="new 0 0 940 424" xml:space="preserve">
<path opacity="0.8" fill="#7E2572" d="M925.949,158.186H663.188C640.707,72.484,562.729,9.258,469.973,9.258
	c-92.752,0-170.73,63.226-193.209,148.927H14v104.763h263.611c23.539,84.105,100.745,145.793,192.362,145.793
	c91.621,0,168.828-61.688,192.367-145.793h263.609V158.186z"/>
<g>
	<path fill="none" d="M645.164,207.719c-2.533,0-4.626,0.892-6.271,2.671c-1.646,1.783-2.474,3.981-2.474,6.6
		c0,2.712,0.848,4.936,2.542,6.668c1.697,1.736,3.764,2.603,6.203,2.603c2.482,0,4.561-0.876,6.235-2.628
		c1.678-1.754,2.511-3.966,2.511-6.643c0-2.693-0.854-4.911-2.555-6.656C649.651,208.592,647.59,207.719,645.164,207.719z"/>
	<path fill="none" d="M531.281,219.104c-1.004,0.873-1.508,2-1.508,3.383c0,1.285,0.441,2.367,1.319,3.236
		c0.882,0.868,2.079,1.308,3.595,1.308c2.612,0,5.078-1.101,7.408-3.296v-3.209c-2.33-1.814-4.683-2.727-7.068-2.727
		C533.53,217.799,532.281,218.234,531.281,219.104z"/>
	<path fill="none" d="M459.336,128.11c0-9.482-6.062-17.862-18.853-19.406v-0.331c10.255-1.984,15.876-7.497,15.876-17.641
		c0-13.562-8.379-20.067-30.101-20.067H388.66v79.606h40.354C450.627,150.272,459.336,140.018,459.336,128.11z M400.128,79.707
		h25.469c15.656,0,19.294,4.961,19.294,12.35c0,8.489-5.842,12.127-15.435,12.127h-29.328V79.707z M400.128,141.231v-28.005h26.792
		c14.002,0,20.288,5.071,20.288,14.223c0,7.718-4.081,13.782-19.626,13.782H400.128z"/>
	<path fill="none" d="M887.847,209.209c-1.63-1.559-3.626-2.34-5.993-2.34c-2.156,0-4.002,0.706-5.535,2.114
		c-1.532,1.411-2.472,3.232-2.812,5.465h17.352C890.476,212.518,889.471,210.775,887.847,209.209z"/>
	<path fill="none" d="M90.786,206.869c-2.158,0-4.004,0.706-5.538,2.114c-1.532,1.411-2.47,3.232-2.81,5.465h17.347
		c-0.378-1.931-1.381-3.672-3.01-5.238C95.148,207.65,93.151,206.869,90.786,206.869z"/>
	<polygon fill="none" points="402.771,195.708 397.299,212.233 408.567,212.233 403.311,195.708 	"/>
	<path fill="none" d="M268.302,219.104c-1.005,0.873-1.506,2-1.506,3.383c0,1.285,0.439,2.367,1.32,3.236
		c0.881,0.868,2.076,1.308,3.591,1.308c2.613,0,5.084-1.101,7.412-3.296v-3.209c-2.328-1.814-4.686-2.727-7.072-2.727
		C270.555,217.799,269.304,218.234,268.302,219.104z"/>
	<path fill="none" d="M344.621,204.339c2.272-0.945,3.819-1.833,4.643-2.668c0.824-0.832,1.235-1.749,1.235-2.753
		c0-0.926-0.35-1.764-1.049-2.514c-0.701-0.747-1.714-1.121-3.04-1.121c-1.19,0-2.187,0.359-2.98,1.08
		c-0.795,0.718-1.193,1.657-1.193,2.81c0,1.021,0.682,2.573,2.044,4.656L344.621,204.339z"/>
	<path fill="none" d="M246.082,213.104c-1.295-0.354-3.128-0.526-5.494-0.526h-3.407v13.229h2.244c2.933,0,5.081-0.147,6.443-0.44
		c1.362-0.293,2.475-0.982,3.337-2.072c0.86-1.087,1.292-2.481,1.292-4.188c0-1.554-0.411-2.852-1.235-3.899
		C248.439,214.148,247.38,213.452,246.082,213.104z"/>
	<path fill="none" d="M246.851,206.201c1.125-0.996,1.688-2.457,1.688-4.388c0-3.749-2.545-5.62-7.637-5.62h-3.72v11.498h3.72
		C243.741,207.691,245.723,207.193,246.851,206.201z"/>
	<path fill="none" d="M268.332,163.936H19.128v94.128h249.204h401.336h249.203v-94.128H669.668H268.332z M70.384,224.84
		c-0.88,1.592-2.049,2.822-3.506,3.691c-1.46,0.873-3.054,1.459-4.787,1.761c-1.731,0.303-4.092,0.454-7.083,0.454h-13.43v-4.939
		h4.856v-29.613h-4.856v-4.942h13.145c3.617,0,6.329,0.217,8.137,0.655c1.807,0.435,3.402,1.534,4.783,3.308
		c1.381,1.77,2.074,3.846,2.074,6.23c0,1.836-0.413,3.493-1.236,4.971c-0.824,1.474-2.03,2.593-3.621,3.349
		c2.197,0.756,3.887,2.013,5.068,3.76c1.184,1.752,1.775,3.752,1.775,6.009C71.704,221.479,71.265,223.249,70.384,224.84z
		 M85.248,224.527c1.667,1.574,3.796,2.355,6.388,2.355c3.768,0,6.749-1.512,8.943-4.542l4.772,2.101
		c-1.553,2.408-3.569,4.188-6.048,5.355c-2.481,1.162-5.073,1.745-7.781,1.745c-4.202,0-7.793-1.313-10.776-3.935
		c-2.98-2.621-4.47-6.155-4.47-10.604c0-4.225,1.452-7.696,4.356-10.42c2.908-2.728,6.243-4.092,10.009-4.092
		c3.692,0,7.039,1.333,10.038,3.991c3,2.659,4.558,6.621,4.671,11.885H82.239C82.58,220.902,83.583,222.956,85.248,224.527z
		 M140.644,230.746h-10.023v-17.971c0-2.086-0.312-3.44-0.937-4.077c-0.625-0.633-1.391-0.951-2.301-0.951
		c-2.384,0-5.081,1.166-8.092,3.494v14.707h4.744v4.798H109.07v-4.798h4.827V208.06h-4.827v-4.798h10.22v3.324
		c3.467-2.498,6.627-3.749,9.485-3.749c1.78,0,3.25,0.422,4.416,1.263c1.164,0.841,1.925,1.875,2.284,3.094
		c0.36,1.222,0.542,3.008,0.542,5.354v13.4h4.627V230.746z M156.914,231.543c-4.356,0-7.781-1.49-10.279-4.461
		c-2.5-2.971-3.749-6.396-3.749-10.275c0-4.145,1.364-7.565,4.089-10.266c2.725-2.696,5.867-4.048,9.427-4.048
		c3.047,0,5.621,0.901,7.722,2.7v-1.931h4.827v10.394h-4.827c-0.246-1.988-1.054-3.51-2.429-4.571
		c-1.37-1.062-2.964-1.591-4.782-1.591c-2.424,0-4.391,0.857-5.906,2.567c-1.515,1.717-2.271,3.963-2.271,6.747
		c0,2.596,0.718,4.881,2.158,6.858c1.438,1.976,3.519,2.964,6.247,2.964c3.787,0,6.53-1.799,8.234-5.393l4.457,2.101
		C167.372,228.807,163.066,231.543,156.914,231.543z M204.131,230.746h-10.079v-16.809c0-2.08-0.067-3.476-0.2-4.174
		c-0.131-0.699-0.497-1.279-1.092-1.732c-0.599-0.454-1.304-0.681-2.117-0.681c-2.082,0-4.731,1.182-7.951,3.55v15.047h4.771v4.798
		H172.33v-4.798h4.971v-29.9h-4.971v-4.797h10.364v15.164c3.237-2.614,6.314-3.922,9.228-3.922c1.816,0,3.312,0.381,4.487,1.137
		c1.173,0.756,1.972,1.755,2.398,2.996c0.425,1.238,0.638,3.053,0.638,5.437v13.885h4.686V230.746z M223.298,219.814h-17.037v-5.396
		h17.037V219.814z M255.17,224.84c-0.882,1.592-2.049,2.822-3.508,3.691c-1.458,0.873-3.052,1.459-4.785,1.761
		c-1.731,0.303-4.094,0.454-7.083,0.454h-13.432v-4.939h4.857v-29.613h-4.857v-4.942h13.148c3.615,0,6.327,0.217,8.134,0.655
		c1.808,0.435,3.402,1.534,4.785,3.308c1.38,1.77,2.073,3.846,2.073,6.23c0,1.836-0.413,3.493-1.235,4.971
		c-0.825,1.474-2.032,2.593-3.621,3.349c2.197,0.756,3.886,2.013,5.068,3.76c1.183,1.752,1.775,3.752,1.775,6.009
		C256.49,221.479,256.048,223.249,255.17,224.84z M289.084,230.746h-9.426v-3.35c-2.611,2.533-5.528,3.807-8.745,3.807
		c-2.5,0-4.671-0.816-6.518-2.441c-1.846-1.629-2.769-3.711-2.769-6.25c0-2.555,0.979-4.675,2.939-6.359
		c1.959-1.682,4.322-2.525,7.084-2.525c2.573,0,5.063,0.773,7.468,2.327v-2.726c0-1.4-0.132-2.481-0.398-3.234
		c-0.265-0.759-0.885-1.439-1.86-2.047c-0.973-0.608-2.246-0.907-3.818-0.907c-2.709,0-4.668,1.077-5.878,3.235l-5.169-1.361
		c2.292-4.278,6.249-6.42,11.87-6.42c2.062,0,3.848,0.28,5.352,0.838c1.506,0.561,2.627,1.279,3.366,2.158
		c0.738,0.882,1.235,1.833,1.491,2.854c0.255,1.024,0.381,2.652,0.381,4.887v12.72h4.629L289.084,230.746L289.084,230.746z
		 M313.247,208.286h-1.077c-2.745,0-4.794,0.277-6.148,0.825c-1.352,0.548-2.356,1.547-3.008,2.996
		c-0.653,1.45-0.979,4.045-0.979,7.793v6.048h5.99v4.798h-16.922v-4.798h5.536V208.06h-5.536v-4.798h9.852v6.19
		c0.608-1.609,1.449-2.942,2.528-4.003c1.079-1.062,2.219-1.761,3.423-2.101c1.202-0.34,2.841-0.51,4.925-0.51h1.419v5.448H313.247z
		 M366.656,214.678h-4.174c-1.021,3.65-2.328,6.475-3.92,8.461l2.073,2.668h6.021v4.939h-9l-2.613-3.462
		c-3.426,2.725-6.929,4.089-10.505,4.089c-4.09,0-7.467-1.27-10.137-3.807c-2.671-2.534-4.006-5.707-4.006-9.513
		c0-5.264,3.003-9.208,9.004-11.841c-1.8-2.29-2.698-4.589-2.698-6.898c0-2.536,0.961-4.618,2.881-6.247
		c1.921-1.628,4.161-2.441,6.716-2.441c2.652,0,4.889,0.81,6.716,2.426c1.827,1.619,2.741,3.632,2.741,6.036
		c0,2.101-0.645,3.824-1.931,5.169c-1.288,1.342-3.408,2.621-6.36,3.831l8.034,10.877c1.438-2.517,2.46-5.557,3.066-9.116h8.093
		L366.656,214.678L366.656,214.678z M423.555,230.746H408.08v-4.939h4.913l-2.937-8.942h-14.229l-3.022,8.942h4.799v4.939h-15.56
		v-4.939h4.779l10.782-30.099h-4.772v-4.457h20.188v4.457h-4.936l11.052,30.099h4.418V230.746L423.555,230.746z M456.236,230.746
		h-10.023v-17.971c0-2.086-0.312-3.44-0.936-4.077c-0.625-0.633-1.394-0.951-2.301-0.951c-2.388,0-5.084,1.166-8.094,3.494v14.707
		h4.742v4.798h-14.963v-4.798h4.826V208.06h-4.826v-4.798h10.221v3.324c3.463-2.498,6.626-3.749,9.483-3.749
		c1.781,0,3.254,0.422,4.413,1.263c1.169,0.841,1.928,1.875,2.287,3.094c0.361,1.222,0.542,3.008,0.542,5.354v13.4h4.627
		L456.236,230.746L456.236,230.746z M489.571,230.746h-10.023v-17.971c0-2.086-0.312-3.44-0.938-4.077
		c-0.625-0.633-1.393-0.951-2.302-0.951c-2.385,0-5.08,1.166-8.091,3.494v14.707h4.741v4.798h-14.963v-4.798h4.826V208.06h-4.826
		v-4.798h10.222v3.324c3.464-2.498,6.625-3.749,9.483-3.749c1.779,0,3.252,0.422,4.413,1.263c1.167,0.841,1.928,1.875,2.287,3.094
		c0.359,1.222,0.54,3.008,0.54,5.354v13.4h4.629L489.571,230.746L489.571,230.746z M521.369,230.746h-10.135v-3.15
		c-3.161,2.403-6.188,3.607-9.085,3.607c-1.837,0-3.354-0.403-4.558-1.21c-1.203-0.804-2.005-1.843-2.399-3.125
		c-0.398-1.272-0.598-3.333-0.598-6.171V208.06h-3.891v-4.798h9.285v16.752c0,2.025,0.058,3.391,0.17,4.09
		c0.113,0.698,0.449,1.278,0.994,1.731c0.549,0.454,1.239,0.681,2.073,0.681c2.498,0,5.168-1.189,8.007-3.574V208.06h-4.856v-4.798
		h10.251v22.688h4.74L521.369,230.746L521.369,230.746z M552.064,230.746h-9.427v-3.35c-2.612,2.533-5.531,3.807-8.745,3.807
		c-2.499,0-4.675-0.816-6.518-2.441c-1.847-1.629-2.769-3.711-2.769-6.25c0-2.555,0.977-4.675,2.938-6.359
		c1.957-1.682,4.32-2.525,7.084-2.525c2.573,0,5.062,0.773,7.466,2.327v-2.726c0-1.4-0.131-2.481-0.396-3.234
		c-0.261-0.759-0.883-1.439-1.859-2.047c-0.976-0.608-2.246-0.907-3.819-0.907c-2.704,0-4.663,1.077-5.875,3.235l-5.168-1.361
		c2.288-4.278,6.247-6.42,11.868-6.42c2.062,0,3.845,0.28,5.353,0.838c1.503,0.561,2.624,1.279,3.363,2.158
		c0.738,0.882,1.234,1.833,1.49,2.854c0.257,1.024,0.384,2.652,0.384,4.887v12.72h4.63V230.746L552.064,230.746z M568.445,230.746
		h-14.481v-4.798h4.885v-29.9h-4.885v-4.797h10.28v34.697h4.201V230.746z M618.72,227.754c-3.511,2.409-7.548,3.619-12.114,3.619
		c-5.979,0-10.778-1.943-14.394-5.821c-3.616-3.881-5.425-8.679-5.425-14.396c0-6.265,1.818-11.255,5.453-14.962
		c3.634-3.711,8.377-5.566,14.227-5.566c5.168,0,9.511,1.408,13.03,4.23v-3.606h5.111v12.691h-5.111
		c-1.136-2.574-2.889-4.564-5.251-5.976c-2.367-1.411-4.857-2.117-7.47-2.117c-3.936,0-7.167,1.42-9.693,4.259
		c-2.527,2.841-3.791,6.429-3.791,10.764c0,4.447,1.354,8.083,4.058,10.902c2.709,2.818,5.916,4.229,9.629,4.229
		c3.045,0,5.817-0.979,8.316-2.938c2.5-1.955,4.259-4.756,5.281-8.389l5.143,2.866C624.562,221.936,622.227,225.337,618.72,227.754z
		 M655.373,227.511c-2.83,2.688-6.232,4.032-10.209,4.032c-4.088,0-7.518-1.363-10.291-4.089c-2.772-2.728-4.158-6.209-4.158-10.448
		c0-4.24,1.398-7.721,4.203-10.437c2.799-2.715,6.217-4.076,10.246-4.076c3.958,0,7.357,1.342,10.196,4.02
		c2.84,2.678,4.259,6.174,4.259,10.493C659.619,221.32,658.205,224.82,655.373,227.511z M871.706,206.585
		c2.904-2.728,6.238-4.092,10.008-4.092c3.69,0,7.037,1.333,10.037,3.991c2.997,2.659,4.557,6.622,4.67,11.885H873.31
		c0.341,2.533,1.341,4.587,3.009,6.158c1.667,1.574,3.796,2.355,6.387,2.355c3.771,0,6.751-1.512,8.948-4.542l4.769,2.101
		c-1.556,2.408-3.568,4.188-6.05,5.355c-2.476,1.162-5.071,1.745-7.78,1.745c-4.202,0-7.793-1.313-10.771-3.935
		c-2.983-2.621-4.476-6.155-4.476-10.604C867.345,212.781,868.797,209.31,871.706,206.585z M841.08,206.541
		c2.727-2.696,5.871-4.048,9.427-4.048c3.049,0,5.621,0.901,7.725,2.7v-1.931h4.824v10.394h-4.824
		c-0.246-1.988-1.055-3.51-2.43-4.571c-1.372-1.062-2.966-1.591-4.783-1.591c-2.421,0-4.39,0.857-5.905,2.567
		c-1.512,1.717-2.271,3.963-2.271,6.747c0,2.596,0.72,4.881,2.157,6.858c1.44,1.976,3.521,2.964,6.247,2.964
		c3.788,0,6.53-1.799,8.234-5.393l4.459,2.101c-2.465,5.47-6.768,8.206-12.921,8.206c-4.351,0-7.78-1.49-10.277-4.461
		c-2.5-2.971-3.749-6.396-3.749-10.275C836.991,212.662,838.355,209.241,841.08,206.541z M803.176,225.948h4.829V208.06h-4.829
		v-4.798h10.223v3.324c3.465-2.498,6.624-3.749,9.483-3.749c1.778,0,3.25,0.422,4.412,1.263c1.167,0.841,1.926,1.875,2.288,3.094
		c0.359,1.222,0.537,3.008,0.537,5.354v13.4h4.631v4.798h-10.025v-17.971c0-2.086-0.31-3.44-0.936-4.077
		c-0.622-0.633-1.391-0.951-2.301-0.951c-2.386,0-5.079,1.166-8.092,3.494v14.707h4.741v4.798h-14.963L803.176,225.948
		L803.176,225.948z M774.74,206.585c2.906-2.728,6.242-4.092,10.008-4.092c3.689,0,7.037,1.333,10.037,3.991
		c3.001,2.659,4.557,6.622,4.67,11.885h-23.113c0.342,2.533,1.348,4.587,3.012,6.158c1.666,1.574,3.797,2.355,6.393,2.355
		c3.763,0,6.747-1.512,8.939-4.542l4.771,2.101c-1.55,2.408-3.568,4.188-6.046,5.355c-2.48,1.162-5.075,1.745-7.779,1.745
		c-4.202,0-7.798-1.313-10.776-3.935c-2.981-2.621-4.473-6.155-4.473-10.604C770.381,212.781,771.834,209.31,774.74,206.585z
		 M748.208,225.948h5.534V208.06h-5.534v-4.798h9.85v6.19c0.608-1.609,1.449-2.942,2.529-4.003c1.079-1.062,2.22-1.761,3.421-2.101
		c1.2-0.34,2.844-0.51,4.927-0.51h1.419v5.449h-1.076c-2.748,0-4.797,0.277-6.151,0.825c-1.351,0.548-2.354,1.547-3.01,2.996
		c-0.651,1.449-0.979,4.044-0.979,7.792v6.049h5.993v4.798h-16.922V225.948L748.208,225.948z M720.055,206.585
		c2.904-2.728,6.241-4.092,10.006-4.092c3.693,0,7.038,1.333,10.039,3.991c3.002,2.659,4.558,6.622,4.67,11.885h-23.111
		c0.341,2.533,1.346,4.587,3.009,6.158c1.671,1.574,3.796,2.355,6.392,2.355c3.767,0,6.749-1.512,8.942-4.542l4.771,2.101
		c-1.553,2.408-3.569,4.188-6.046,5.355c-2.479,1.162-5.075,1.745-7.78,1.745c-4.203,0-7.796-1.313-10.775-3.935
		c-2.982-2.621-4.475-6.155-4.475-10.604C715.693,212.781,717.15,209.31,720.055,206.585z M696.758,225.948h4.001v-17.917h-4.001
		v-4.771h4.001v-3.966c0-3.342,0.714-5.651,2.133-6.927c1.419-1.276,3.094-1.912,5.024-1.912c4.165,0,6.577,2.11,7.241,6.332
		l-4.802,0.737c-0.187-1.761-0.877-2.64-2.069-2.64c-0.816,0-1.371,0.277-1.678,0.834c-0.302,0.558-0.454,1.749-0.454,3.579v3.962
		h4.713v4.771h-4.713v17.917h5.227v4.798h-14.623V225.948L696.758,225.948z M683.098,202.837c1.783,0,3.256,0.422,4.417,1.263
		c1.167,0.841,1.927,1.875,2.285,3.094c0.362,1.222,0.542,3.008,0.542,5.354v13.4h4.626v4.798h-10.021v-17.971
		c0-2.086-0.313-3.44-0.938-4.077c-0.624-0.633-1.39-0.951-2.296-0.951c-2.387,0-5.085,1.166-8.096,3.494v14.707h4.743v4.798
		h-14.967v-4.798h4.828V208.06h-4.828v-4.798h10.224v3.324C677.08,204.087,680.242,202.837,683.098,202.837z"/>
	<path fill="none" d="M336.275,217.799c0,2.311,0.861,4.332,2.585,6.062c1.72,1.734,3.812,2.599,6.274,2.599
		c2.518,0,4.808-1.049,6.87-3.149l-9.598-13.46C338.319,211.666,336.275,214.314,336.275,217.799z"/>
	<path fill="none" d="M736.195,209.209c-1.626-1.559-3.626-2.34-5.988-2.34c-2.158,0-4.007,0.706-5.541,2.114
		c-1.532,1.411-2.467,3.232-2.809,5.465h17.346C738.828,212.518,737.823,210.775,736.195,209.209z"/>
	<path fill="none" d="M549.086,128.11c0-9.482-6.064-17.862-18.854-19.406v-0.331c10.255-1.984,15.877-7.497,15.877-17.641
		c0-13.562-8.378-20.067-30.1-20.067h-37.599v79.606h40.353C540.377,150.272,549.086,140.018,549.086,128.11z M489.877,79.707
		h25.471c15.656,0,19.294,4.961,19.294,12.35c0,8.489-5.843,12.127-15.435,12.127h-29.33V79.707L489.877,79.707z M489.877,141.231
		v-28.005h26.793c14.003,0,20.289,5.071,20.289,14.223c0,7.718-4.081,13.782-19.628,13.782H489.877z"/>
	<path fill="none" d="M62.065,206.201c1.126-0.996,1.688-2.457,1.688-4.388c0-3.749-2.545-5.62-7.637-5.62h-3.72v11.498h3.72
		C58.956,207.691,60.939,207.193,62.065,206.201z"/>
	<path fill="none" d="M790.881,209.209c-1.625-1.559-3.625-2.34-5.989-2.34c-2.157,0-4.006,0.706-5.538,2.114
		c-1.531,1.411-2.468,3.232-2.81,5.465h17.347C793.515,212.518,792.51,210.775,790.881,209.209z"/>
	<path fill="none" d="M61.298,213.104c-1.296-0.354-3.128-0.526-5.494-0.526h-3.408v13.229h2.243c2.936,0,5.084-0.147,6.445-0.44
		c1.364-0.293,2.476-0.982,3.337-2.072c0.861-1.087,1.293-2.481,1.293-4.188c0-1.554-0.413-2.852-1.235-3.899
		C63.654,214.148,62.593,213.452,61.298,213.104z"/>
	<path fill="none" d="M531.281,219.104c-1.004,0.873-1.508,2-1.508,3.383c0,1.285,0.441,2.367,1.319,3.236
		c0.882,0.868,2.079,1.308,3.595,1.308c2.612,0,5.078-1.101,7.408-3.296v-3.209c-2.33-1.814-4.683-2.727-7.068-2.727
		C533.53,217.799,532.281,218.234,531.281,219.104z"/>
	<path fill="none" d="M645.164,207.719c-2.533,0-4.626,0.892-6.271,2.671c-1.646,1.783-2.474,3.981-2.474,6.6
		c0,2.712,0.848,4.936,2.542,6.668c1.697,1.736,3.764,2.603,6.203,2.603c2.482,0,4.561-0.876,6.235-2.628
		c1.678-1.754,2.511-3.966,2.511-6.643c0-2.693-0.854-4.911-2.555-6.656C649.651,208.592,647.59,207.719,645.164,207.719z"/>
	<path fill="none" d="M887.847,209.209c-1.63-1.559-3.626-2.34-5.993-2.34c-2.156,0-4.002,0.706-5.535,2.114
		c-1.532,1.411-2.472,3.232-2.812,5.465h17.352C890.476,212.518,889.471,210.775,887.847,209.209z"/>
	<path fill="none" d="M268.302,219.104c-1.005,0.873-1.506,2-1.506,3.383c0,1.285,0.439,2.367,1.32,3.236
		c0.881,0.868,2.076,1.308,3.591,1.308c2.613,0,5.084-1.101,7.412-3.296v-3.209c-2.328-1.814-4.686-2.727-7.072-2.727
		C270.555,217.799,269.304,218.234,268.302,219.104z"/>
	<path fill="none" d="M90.786,206.869c-2.158,0-4.004,0.706-5.538,2.114c-1.532,1.411-2.47,3.232-2.81,5.465h17.347
		c-0.378-1.931-1.381-3.672-3.01-5.238C95.148,207.65,93.151,206.869,90.786,206.869z"/>
	<path fill="none" d="M246.851,206.201c1.125-0.996,1.688-2.457,1.688-4.388c0-3.749-2.545-5.62-7.637-5.62h-3.72v11.498h3.72
		C243.741,207.691,245.723,207.193,246.851,206.201z"/>
	<path fill="none" d="M336.275,217.799c0,2.311,0.861,4.332,2.585,6.062c1.72,1.734,3.812,2.599,6.274,2.599
		c2.518,0,4.808-1.049,6.87-3.149l-9.598-13.46C338.319,211.666,336.275,214.314,336.275,217.799z"/>
	<path fill="none" d="M344.621,204.339c2.272-0.945,3.819-1.833,4.643-2.668c0.824-0.832,1.235-1.749,1.235-2.753
		c0-0.926-0.35-1.764-1.049-2.514c-0.701-0.747-1.714-1.121-3.04-1.121c-1.19,0-2.187,0.359-2.98,1.08
		c-0.795,0.718-1.193,1.657-1.193,2.81c0,1.021,0.682,2.573,2.044,4.656L344.621,204.339z"/>
	<polygon fill="none" points="402.771,195.708 397.299,212.233 408.567,212.233 403.311,195.708 	"/>
	<path fill="none" d="M61.298,213.104c-1.296-0.354-3.128-0.526-5.494-0.526h-3.408v13.229h2.243c2.936,0,5.084-0.147,6.445-0.44
		c1.364-0.293,2.476-0.982,3.337-2.072c0.861-1.087,1.293-2.481,1.293-4.188c0-1.554-0.413-2.852-1.235-3.899
		C63.654,214.148,62.593,213.452,61.298,213.104z"/>
	<path fill="none" d="M246.082,213.104c-1.295-0.354-3.128-0.526-5.494-0.526h-3.407v13.229h2.244c2.933,0,5.081-0.147,6.443-0.44
		c1.362-0.293,2.475-0.982,3.337-2.072c0.86-1.087,1.292-2.481,1.292-4.188c0-1.554-0.411-2.852-1.235-3.899
		C248.439,214.148,247.38,213.452,246.082,213.104z"/>
	<path fill="none" d="M549.086,128.11c0-9.482-6.064-17.862-18.854-19.406v-0.331c10.255-1.984,15.877-7.497,15.877-17.641
		c0-13.562-8.378-20.067-30.1-20.067h-37.599v79.606h40.353C540.377,150.272,549.086,140.018,549.086,128.11z M489.877,79.707
		h25.471c15.656,0,19.294,4.961,19.294,12.35c0,8.489-5.843,12.127-15.435,12.127h-29.33V79.707L489.877,79.707z M489.877,141.231
		v-28.005h26.793c14.003,0,20.289,5.071,20.289,14.223c0,7.718-4.081,13.782-19.628,13.782H489.877z"/>
	<path fill="none" d="M268.332,163.936H19.128v94.128h249.204h401.336h249.203v-94.128H669.668H268.332z M70.384,224.84
		c-0.88,1.592-2.049,2.822-3.506,3.691c-1.46,0.873-3.054,1.459-4.787,1.761c-1.731,0.303-4.092,0.454-7.083,0.454h-13.43v-4.939
		h4.856v-29.613h-4.856v-4.942h13.145c3.617,0,6.329,0.217,8.137,0.655c1.807,0.435,3.402,1.534,4.783,3.308
		c1.381,1.77,2.074,3.846,2.074,6.23c0,1.836-0.413,3.493-1.236,4.971c-0.824,1.474-2.03,2.593-3.621,3.349
		c2.197,0.756,3.887,2.013,5.068,3.76c1.184,1.752,1.775,3.752,1.775,6.009C71.704,221.479,71.265,223.249,70.384,224.84z
		 M85.248,224.527c1.667,1.574,3.796,2.355,6.388,2.355c3.768,0,6.749-1.512,8.943-4.542l4.772,2.101
		c-1.553,2.408-3.569,4.188-6.048,5.355c-2.481,1.162-5.073,1.745-7.781,1.745c-4.202,0-7.793-1.313-10.776-3.935
		c-2.98-2.621-4.47-6.155-4.47-10.604c0-4.225,1.452-7.696,4.356-10.42c2.908-2.728,6.243-4.092,10.009-4.092
		c3.692,0,7.039,1.333,10.038,3.991c3,2.659,4.558,6.621,4.671,11.885H82.239C82.58,220.902,83.583,222.956,85.248,224.527z
		 M140.644,230.746h-10.023v-17.971c0-2.086-0.312-3.44-0.937-4.077c-0.625-0.633-1.391-0.951-2.301-0.951
		c-2.384,0-5.081,1.166-8.092,3.494v14.707h4.744v4.798H109.07v-4.798h4.827V208.06h-4.827v-4.798h10.22v3.324
		c3.467-2.498,6.627-3.749,9.485-3.749c1.78,0,3.25,0.422,4.416,1.263c1.164,0.841,1.925,1.875,2.284,3.094
		c0.36,1.222,0.542,3.008,0.542,5.354v13.4h4.627V230.746z M156.914,231.543c-4.356,0-7.781-1.49-10.279-4.461
		c-2.5-2.971-3.749-6.396-3.749-10.275c0-4.145,1.364-7.565,4.089-10.266c2.725-2.696,5.867-4.048,9.427-4.048
		c3.047,0,5.621,0.901,7.722,2.7v-1.931h4.827v10.394h-4.827c-0.246-1.988-1.054-3.51-2.429-4.571
		c-1.37-1.062-2.964-1.591-4.782-1.591c-2.424,0-4.391,0.857-5.906,2.567c-1.515,1.717-2.271,3.963-2.271,6.747
		c0,2.596,0.718,4.881,2.158,6.858c1.438,1.976,3.519,2.964,6.247,2.964c3.787,0,6.53-1.799,8.234-5.393l4.457,2.101
		C167.372,228.807,163.066,231.543,156.914,231.543z M204.131,230.746h-10.079v-16.809c0-2.08-0.067-3.476-0.2-4.174
		c-0.131-0.699-0.497-1.279-1.092-1.732c-0.599-0.454-1.304-0.681-2.117-0.681c-2.082,0-4.731,1.182-7.951,3.55v15.047h4.771v4.798
		H172.33v-4.798h4.971v-29.9h-4.971v-4.797h10.364v15.164c3.237-2.614,6.314-3.922,9.228-3.922c1.816,0,3.312,0.381,4.487,1.137
		c1.173,0.756,1.972,1.755,2.398,2.996c0.425,1.238,0.638,3.053,0.638,5.437v13.885h4.686V230.746z M223.298,219.814h-17.037v-5.396
		h17.037V219.814z M255.17,224.84c-0.882,1.592-2.049,2.822-3.508,3.691c-1.458,0.873-3.052,1.459-4.785,1.761
		c-1.731,0.303-4.094,0.454-7.083,0.454h-13.432v-4.939h4.857v-29.613h-4.857v-4.942h13.148c3.615,0,6.327,0.217,8.134,0.655
		c1.808,0.435,3.402,1.534,4.785,3.308c1.38,1.77,2.073,3.846,2.073,6.23c0,1.836-0.413,3.493-1.235,4.971
		c-0.825,1.474-2.032,2.593-3.621,3.349c2.197,0.756,3.886,2.013,5.068,3.76c1.183,1.752,1.775,3.752,1.775,6.009
		C256.49,221.479,256.048,223.249,255.17,224.84z M289.084,230.746h-9.426v-3.35c-2.611,2.533-5.528,3.807-8.745,3.807
		c-2.5,0-4.671-0.816-6.518-2.441c-1.846-1.629-2.769-3.711-2.769-6.25c0-2.555,0.979-4.675,2.939-6.359
		c1.959-1.682,4.322-2.525,7.084-2.525c2.573,0,5.063,0.773,7.468,2.327v-2.726c0-1.4-0.132-2.481-0.398-3.234
		c-0.265-0.759-0.885-1.439-1.86-2.047c-0.973-0.608-2.246-0.907-3.818-0.907c-2.709,0-4.668,1.077-5.878,3.235l-5.169-1.361
		c2.292-4.278,6.249-6.42,11.87-6.42c2.062,0,3.848,0.28,5.352,0.838c1.506,0.561,2.627,1.279,3.366,2.158
		c0.738,0.882,1.235,1.833,1.491,2.854c0.255,1.024,0.381,2.652,0.381,4.887v12.72h4.629L289.084,230.746L289.084,230.746z
		 M313.247,208.286h-1.077c-2.745,0-4.794,0.277-6.148,0.825c-1.352,0.548-2.356,1.547-3.008,2.996
		c-0.653,1.45-0.979,4.045-0.979,7.793v6.048h5.99v4.798h-16.922v-4.798h5.536V208.06h-5.536v-4.798h9.852v6.19
		c0.608-1.609,1.449-2.942,2.528-4.003c1.079-1.062,2.219-1.761,3.423-2.101c1.202-0.34,2.841-0.51,4.925-0.51h1.419v5.448H313.247z
		 M366.656,214.678h-4.174c-1.021,3.65-2.328,6.475-3.92,8.461l2.073,2.668h6.021v4.939h-9l-2.613-3.462
		c-3.426,2.725-6.929,4.089-10.505,4.089c-4.09,0-7.467-1.27-10.137-3.807c-2.671-2.534-4.006-5.707-4.006-9.513
		c0-5.264,3.003-9.208,9.004-11.841c-1.8-2.29-2.698-4.589-2.698-6.898c0-2.536,0.961-4.618,2.881-6.247
		c1.921-1.628,4.161-2.441,6.716-2.441c2.652,0,4.889,0.81,6.716,2.426c1.827,1.619,2.741,3.632,2.741,6.036
		c0,2.101-0.645,3.824-1.931,5.169c-1.288,1.342-3.408,2.621-6.36,3.831l8.034,10.877c1.438-2.517,2.46-5.557,3.066-9.116h8.093
		L366.656,214.678L366.656,214.678z M423.555,230.746H408.08v-4.939h4.913l-2.937-8.942h-14.229l-3.022,8.942h4.799v4.939h-15.56
		v-4.939h4.779l10.782-30.099h-4.772v-4.457h20.188v4.457h-4.936l11.052,30.099h4.418V230.746L423.555,230.746z M456.236,230.746
		h-10.023v-17.971c0-2.086-0.312-3.44-0.936-4.077c-0.625-0.633-1.394-0.951-2.301-0.951c-2.388,0-5.084,1.166-8.094,3.494v14.707
		h4.742v4.798h-14.963v-4.798h4.826V208.06h-4.826v-4.798h10.221v3.324c3.463-2.498,6.626-3.749,9.483-3.749
		c1.781,0,3.254,0.422,4.413,1.263c1.169,0.841,1.928,1.875,2.287,3.094c0.361,1.222,0.542,3.008,0.542,5.354v13.4h4.627
		L456.236,230.746L456.236,230.746z M489.571,230.746h-10.023v-17.971c0-2.086-0.312-3.44-0.938-4.077
		c-0.625-0.633-1.393-0.951-2.302-0.951c-2.385,0-5.08,1.166-8.091,3.494v14.707h4.741v4.798h-14.963v-4.798h4.826V208.06h-4.826
		v-4.798h10.222v3.324c3.464-2.498,6.625-3.749,9.483-3.749c1.779,0,3.252,0.422,4.413,1.263c1.167,0.841,1.928,1.875,2.287,3.094
		c0.359,1.222,0.54,3.008,0.54,5.354v13.4h4.629L489.571,230.746L489.571,230.746z M521.369,230.746h-10.135v-3.15
		c-3.161,2.403-6.188,3.607-9.085,3.607c-1.837,0-3.354-0.403-4.558-1.21c-1.203-0.804-2.005-1.843-2.399-3.125
		c-0.398-1.272-0.598-3.333-0.598-6.171V208.06h-3.891v-4.798h9.285v16.752c0,2.025,0.058,3.391,0.17,4.09
		c0.113,0.698,0.449,1.278,0.994,1.731c0.549,0.454,1.239,0.681,2.073,0.681c2.498,0,5.168-1.189,8.007-3.574V208.06h-4.856v-4.798
		h10.251v22.688h4.74L521.369,230.746L521.369,230.746z M552.064,230.746h-9.427v-3.35c-2.612,2.533-5.531,3.807-8.745,3.807
		c-2.499,0-4.675-0.816-6.518-2.441c-1.847-1.629-2.769-3.711-2.769-6.25c0-2.555,0.977-4.675,2.938-6.359
		c1.957-1.682,4.32-2.525,7.084-2.525c2.573,0,5.062,0.773,7.466,2.327v-2.726c0-1.4-0.131-2.481-0.396-3.234
		c-0.261-0.759-0.883-1.439-1.859-2.047c-0.976-0.608-2.246-0.907-3.819-0.907c-2.704,0-4.663,1.077-5.875,3.235l-5.168-1.361
		c2.288-4.278,6.247-6.42,11.868-6.42c2.062,0,3.845,0.28,5.353,0.838c1.503,0.561,2.624,1.279,3.363,2.158
		c0.738,0.882,1.234,1.833,1.49,2.854c0.257,1.024,0.384,2.652,0.384,4.887v12.72h4.63V230.746L552.064,230.746z M568.445,230.746
		h-14.481v-4.798h4.885v-29.9h-4.885v-4.797h10.28v34.697h4.201V230.746z M618.72,227.754c-3.511,2.409-7.548,3.619-12.114,3.619
		c-5.979,0-10.778-1.943-14.394-5.821c-3.616-3.881-5.425-8.679-5.425-14.396c0-6.265,1.818-11.255,5.453-14.962
		c3.634-3.711,8.377-5.566,14.227-5.566c5.168,0,9.511,1.408,13.03,4.23v-3.606h5.111v12.691h-5.111
		c-1.136-2.574-2.889-4.564-5.251-5.976c-2.367-1.411-4.857-2.117-7.47-2.117c-3.936,0-7.167,1.42-9.693,4.259
		c-2.527,2.841-3.791,6.429-3.791,10.764c0,4.447,1.354,8.083,4.058,10.902c2.709,2.818,5.916,4.229,9.629,4.229
		c3.045,0,5.817-0.979,8.316-2.938c2.5-1.955,4.259-4.756,5.281-8.389l5.143,2.866C624.562,221.936,622.227,225.337,618.72,227.754z
		 M655.373,227.511c-2.83,2.688-6.232,4.032-10.209,4.032c-4.088,0-7.518-1.363-10.291-4.089c-2.772-2.728-4.158-6.209-4.158-10.448
		c0-4.24,1.398-7.721,4.203-10.437c2.799-2.715,6.217-4.076,10.246-4.076c3.958,0,7.357,1.342,10.196,4.02
		c2.84,2.678,4.259,6.174,4.259,10.493C659.619,221.32,658.205,224.82,655.373,227.511z M871.706,206.585
		c2.904-2.728,6.238-4.092,10.008-4.092c3.69,0,7.037,1.333,10.037,3.991c2.997,2.659,4.557,6.622,4.67,11.885H873.31
		c0.341,2.533,1.341,4.587,3.009,6.158c1.667,1.574,3.796,2.355,6.387,2.355c3.771,0,6.751-1.512,8.948-4.542l4.769,2.101
		c-1.556,2.408-3.568,4.188-6.05,5.355c-2.476,1.162-5.071,1.745-7.78,1.745c-4.202,0-7.793-1.313-10.771-3.935
		c-2.983-2.621-4.476-6.155-4.476-10.604C867.345,212.781,868.797,209.31,871.706,206.585z M841.08,206.541
		c2.727-2.696,5.871-4.048,9.427-4.048c3.049,0,5.621,0.901,7.725,2.7v-1.931h4.824v10.394h-4.824
		c-0.246-1.988-1.055-3.51-2.43-4.571c-1.372-1.062-2.966-1.591-4.783-1.591c-2.421,0-4.39,0.857-5.905,2.567
		c-1.512,1.717-2.271,3.963-2.271,6.747c0,2.596,0.72,4.881,2.157,6.858c1.44,1.976,3.521,2.964,6.247,2.964
		c3.788,0,6.53-1.799,8.234-5.393l4.459,2.101c-2.465,5.47-6.768,8.206-12.921,8.206c-4.351,0-7.78-1.49-10.277-4.461
		c-2.5-2.971-3.749-6.396-3.749-10.275C836.991,212.662,838.355,209.241,841.08,206.541z M803.176,225.948h4.829V208.06h-4.829
		v-4.798h10.223v3.324c3.465-2.498,6.624-3.749,9.483-3.749c1.778,0,3.25,0.422,4.412,1.263c1.167,0.841,1.926,1.875,2.288,3.094
		c0.359,1.222,0.537,3.008,0.537,5.354v13.4h4.631v4.798h-10.025v-17.971c0-2.086-0.31-3.44-0.936-4.077
		c-0.622-0.633-1.391-0.951-2.301-0.951c-2.386,0-5.079,1.166-8.092,3.494v14.707h4.741v4.798h-14.963L803.176,225.948
		L803.176,225.948z M774.74,206.585c2.906-2.728,6.242-4.092,10.008-4.092c3.689,0,7.037,1.333,10.037,3.991
		c3.001,2.659,4.557,6.622,4.67,11.885h-23.113c0.342,2.533,1.348,4.587,3.012,6.158c1.666,1.574,3.797,2.355,6.393,2.355
		c3.763,0,6.747-1.512,8.939-4.542l4.771,2.101c-1.55,2.408-3.568,4.188-6.046,5.355c-2.48,1.162-5.075,1.745-7.779,1.745
		c-4.202,0-7.798-1.313-10.776-3.935c-2.981-2.621-4.473-6.155-4.473-10.604C770.381,212.781,771.834,209.31,774.74,206.585z
		 M748.208,225.948h5.534V208.06h-5.534v-4.798h9.85v6.19c0.608-1.609,1.449-2.942,2.529-4.003c1.079-1.062,2.22-1.761,3.421-2.101
		c1.2-0.34,2.844-0.51,4.927-0.51h1.419v5.449h-1.076c-2.748,0-4.797,0.277-6.151,0.825c-1.351,0.548-2.354,1.547-3.01,2.996
		c-0.651,1.449-0.979,4.044-0.979,7.792v6.049h5.993v4.798h-16.922V225.948L748.208,225.948z M720.055,206.585
		c2.904-2.728,6.241-4.092,10.006-4.092c3.693,0,7.038,1.333,10.039,3.991c3.002,2.659,4.558,6.622,4.67,11.885h-23.111
		c0.341,2.533,1.346,4.587,3.009,6.158c1.671,1.574,3.796,2.355,6.392,2.355c3.767,0,6.749-1.512,8.942-4.542l4.771,2.101
		c-1.553,2.408-3.569,4.188-6.046,5.355c-2.479,1.162-5.075,1.745-7.78,1.745c-4.203,0-7.796-1.313-10.775-3.935
		c-2.982-2.621-4.475-6.155-4.475-10.604C715.693,212.781,717.15,209.31,720.055,206.585z M696.758,225.948h4.001v-17.917h-4.001
		v-4.771h4.001v-3.966c0-3.342,0.714-5.651,2.133-6.927c1.419-1.276,3.094-1.912,5.024-1.912c4.165,0,6.577,2.11,7.241,6.332
		l-4.802,0.737c-0.187-1.761-0.877-2.64-2.069-2.64c-0.816,0-1.371,0.277-1.678,0.834c-0.302,0.558-0.454,1.749-0.454,3.579v3.962
		h4.713v4.771h-4.713v17.917h5.227v4.798h-14.623V225.948L696.758,225.948z M683.098,202.837c1.783,0,3.256,0.422,4.417,1.263
		c1.167,0.841,1.927,1.875,2.285,3.094c0.362,1.222,0.542,3.008,0.542,5.354v13.4h4.626v4.798h-10.021v-17.971
		c0-2.086-0.313-3.44-0.938-4.077c-0.624-0.633-1.39-0.951-2.296-0.951c-2.387,0-5.085,1.166-8.096,3.494v14.707h4.743v4.798
		h-14.967v-4.798h4.828V208.06h-4.828v-4.798h10.224v3.324C677.08,204.087,680.242,202.837,683.098,202.837z"/>
	<path fill="none" d="M736.195,209.209c-1.626-1.559-3.626-2.34-5.988-2.34c-2.158,0-4.007,0.706-5.541,2.114
		c-1.532,1.411-2.467,3.232-2.809,5.465h17.346C738.828,212.518,737.823,210.775,736.195,209.209z"/>
	<path fill="none" d="M62.065,206.201c1.126-0.996,1.688-2.457,1.688-4.388c0-3.749-2.545-5.62-7.637-5.62h-3.72v11.498h3.72
		C58.956,207.691,60.939,207.193,62.065,206.201z"/>
	<path fill="none" d="M459.336,128.11c0-9.482-6.062-17.862-18.853-19.406v-0.331c10.255-1.984,15.876-7.497,15.876-17.641
		c0-13.562-8.379-20.067-30.101-20.067H388.66v79.606h40.354C450.627,150.272,459.336,140.018,459.336,128.11z M400.128,79.707
		h25.469c15.656,0,19.294,4.961,19.294,12.35c0,8.489-5.842,12.127-15.435,12.127h-29.328V79.707z M400.128,141.231v-28.005h26.792
		c14.002,0,20.288,5.071,20.288,14.223c0,7.718-4.081,13.782-19.626,13.782H400.128z"/>
	<path fill="none" d="M790.881,209.209c-1.625-1.559-3.625-2.34-5.989-2.34c-2.157,0-4.006,0.706-5.538,2.114
		c-1.531,1.411-2.468,3.232-2.81,5.465h17.347C793.515,212.518,792.51,210.775,790.881,209.209z"/>
	<path fill="#FFFFFF" d="M536.959,127.449c0-9.152-6.286-14.223-20.289-14.223h-26.793v28.005h27.454
		C532.878,141.231,536.959,135.167,536.959,127.449z"/>
	<path fill="#FFFFFF" d="M534.642,92.057c0-7.389-3.638-12.35-19.294-12.35h-25.471v24.477h29.33
		C528.799,104.184,534.642,100.546,534.642,92.057z"/>
	<path fill="#FFFFFF" d="M444.891,92.057c0-7.389-3.638-12.35-19.294-12.35h-25.469v24.477h29.328
		C439.049,104.184,444.891,100.546,444.891,92.057z"/>
	<path fill="#FFFFFF" d="M447.208,127.449c0-9.152-6.286-14.223-20.288-14.223h-26.792v28.005h27.454
		C443.127,141.231,447.208,135.167,447.208,127.449z"/>
	<path fill="#FFFFFF" d="M64.861,209.764c1.591-0.756,2.797-1.875,3.621-3.349c0.824-1.478,1.236-3.134,1.236-4.971
		c0-2.385-0.693-4.46-2.074-6.23c-1.381-1.773-2.977-2.873-4.783-3.308c-1.808-0.438-4.52-0.655-8.137-0.655H41.579v4.942h4.856
		v29.614h-4.856v4.938h13.43c2.991,0,5.352-0.151,7.083-0.454c1.732-0.302,3.327-0.889,4.787-1.761
		c1.457-0.869,2.625-2.101,3.506-3.691c0.881-1.59,1.32-3.36,1.32-5.308c0-2.256-0.591-4.256-1.775-6.008
		C68.748,211.776,67.058,210.52,64.861,209.764z M52.396,196.193h3.72c5.092,0,7.637,1.871,7.637,5.62
		c0,1.931-0.562,3.393-1.688,4.388c-1.126,0.992-3.109,1.49-5.949,1.49h-3.72V196.193z M64.421,223.293
		c-0.862,1.09-1.974,1.779-3.337,2.072c-1.361,0.293-3.509,0.441-6.445,0.441h-2.243v-13.23h3.408c2.366,0,4.198,0.174,5.494,0.525
		c1.295,0.351,2.356,1.047,3.182,2.103c0.822,1.049,1.235,2.347,1.235,3.899C65.714,220.811,65.283,222.206,64.421,223.293z"/>
	<path fill="#FFFFFF" d="M100.68,206.484c-2.999-2.659-6.346-3.991-10.038-3.991c-3.766,0-7.102,1.364-10.009,4.092
		c-2.904,2.725-4.356,6.196-4.356,10.42c0,4.447,1.49,7.981,4.47,10.603c2.983,2.621,6.574,3.936,10.776,3.936
		c2.708,0,5.3-0.583,7.781-1.745c2.479-1.169,4.495-2.948,6.048-5.354l-4.772-2.102c-2.194,3.03-5.176,4.542-8.943,4.542
		c-2.592,0-4.722-0.78-6.388-2.356c-1.665-1.57-2.668-3.625-3.008-6.157h23.112C105.238,213.105,103.68,209.143,100.68,206.484z
		 M82.438,214.447c0.34-2.233,1.277-4.054,2.81-5.465c1.534-1.408,3.38-2.114,5.538-2.114c2.365,0,4.363,0.781,5.99,2.34
		c1.628,1.566,2.632,3.308,3.01,5.238L82.438,214.447L82.438,214.447z"/>
	<path fill="#FFFFFF" d="M136.017,212.548c0-2.346-0.181-4.132-0.542-5.354c-0.359-1.219-1.12-2.252-2.284-3.094
		c-1.166-0.841-2.636-1.263-4.416-1.263c-2.857,0-6.018,1.25-9.485,3.749v-3.324h-10.22v4.798h4.827v17.889h-4.827v4.798h14.964
		v-4.798h-4.744v-14.707c3.011-2.328,5.708-3.494,8.092-3.494c0.911,0,1.676,0.318,2.301,0.951c0.625,0.636,0.937,1.991,0.937,4.076
		v17.972h10.023v-4.798h-4.627L136.017,212.548L136.017,212.548z"/>
	<path fill="#FFFFFF" d="M157.141,226.629c-2.728,0-4.809-0.988-6.247-2.964c-1.439-1.979-2.158-4.263-2.158-6.858
		c0-2.783,0.756-5.03,2.271-6.747c1.515-1.71,3.482-2.567,5.906-2.567c1.817,0,3.412,0.529,4.782,1.591
		c1.375,1.062,2.183,2.583,2.429,4.571h4.827v-10.394h-4.827v1.931c-2.101-1.798-4.675-2.7-7.722-2.7
		c-3.56,0-6.702,1.352-9.427,4.048c-2.725,2.7-4.089,6.121-4.089,10.266c0,3.879,1.249,7.307,3.749,10.275
		c2.498,2.971,5.922,4.461,10.279,4.461c6.152,0,10.458-2.736,12.918-8.206l-4.457-2.101
		C163.671,224.83,160.927,226.629,157.141,226.629z"/>
	<path fill="#FFFFFF" d="M199.446,212.063c0-2.384-0.213-4.199-0.638-5.437c-0.427-1.241-1.225-2.239-2.398-2.996
		c-1.175-0.756-2.671-1.137-4.487-1.137c-2.914,0-5.991,1.308-9.228,3.922v-15.164H172.33v4.797h4.971v29.9h-4.971v4.798h15.134
		v-4.798h-4.771v-15.047c3.219-2.369,5.869-3.55,7.951-3.55c0.812,0,1.518,0.227,2.117,0.681c0.595,0.454,0.961,1.033,1.092,1.732
		c0.132,0.699,0.2,2.095,0.2,4.173v16.81h10.079v-4.798h-4.686V212.063z"/>
	<rect x="206.261" y="214.419" fill="#FFFFFF" width="17.037" height="5.396"/>
	<path fill="#FFFFFF" d="M249.646,209.764c1.589-0.756,2.796-1.875,3.621-3.349c0.822-1.478,1.235-3.134,1.235-4.971
		c0-2.385-0.693-4.46-2.073-6.23c-1.383-1.773-2.977-2.873-4.785-3.308c-1.807-0.438-4.519-0.655-8.134-0.655h-13.148v4.942h4.857
		v29.614h-4.857v4.938h13.432c2.989,0,5.352-0.151,7.083-0.454c1.732-0.302,3.326-0.889,4.785-1.761
		c1.458-0.869,2.625-2.101,3.508-3.691c0.878-1.591,1.32-3.36,1.32-5.308c0-2.256-0.592-4.256-1.775-6.008
		C253.532,211.776,251.843,210.52,249.646,209.764z M237.182,196.193h3.72c5.092,0,7.637,1.871,7.637,5.62
		c0,1.931-0.564,3.393-1.688,4.388c-1.128,0.992-3.109,1.49-5.949,1.49h-3.72V196.193L237.182,196.193z M249.207,223.293
		c-0.863,1.09-1.975,1.779-3.337,2.072c-1.362,0.293-3.511,0.441-6.443,0.441h-2.244v-13.23h3.407c2.366,0,4.199,0.174,5.494,0.525
		c1.298,0.351,2.357,1.047,3.181,2.103c0.824,1.049,1.235,2.347,1.235,3.899C250.498,220.811,250.066,222.206,249.207,223.293z"/>
	<path fill="#FFFFFF" d="M284.456,213.229c0-2.232-0.126-3.861-0.381-4.886c-0.256-1.021-0.753-1.972-1.491-2.854
		c-0.739-0.879-1.86-1.597-3.366-2.158c-1.504-0.558-3.289-0.838-5.352-0.838c-5.621,0-9.578,2.142-11.87,6.42l5.169,1.361
		c1.209-2.158,3.169-3.235,5.878-3.235c1.572,0,2.845,0.299,3.818,0.907c0.975,0.608,1.595,1.288,1.86,2.047
		c0.267,0.753,0.398,1.833,0.398,3.235v2.725c-2.405-1.553-4.895-2.327-7.468-2.327c-2.763,0-5.125,0.844-7.084,2.526
		c-1.959,1.685-2.939,3.805-2.939,6.358c0,2.539,0.923,4.621,2.769,6.25c1.846,1.625,4.018,2.441,6.518,2.441
		c3.216,0,6.133-1.273,8.745-3.806v3.349h9.426v-4.798h-4.629L284.456,213.229L284.456,213.229z M279.119,223.734
		c-2.328,2.195-4.799,3.295-7.412,3.295c-1.515,0-2.711-0.438-3.591-1.309c-0.88-0.869-1.32-1.949-1.32-3.234
		c0-1.383,0.501-2.512,1.506-3.383c1.001-0.869,2.252-1.306,3.745-1.306c2.386,0,4.744,0.911,7.072,2.726V223.734z"/>
	<path fill="#FFFFFF" d="M306.903,203.347c-1.204,0.34-2.344,1.04-3.423,2.101s-1.92,2.394-2.528,4.003v-6.19H291.1v4.798h5.536
		v17.889H291.1v4.798h16.922v-4.798h-5.99V219.9c0-3.748,0.326-6.344,0.979-7.793c0.652-1.449,1.657-2.448,3.007-2.996
		c1.354-0.548,3.404-0.825,6.149-0.825h1.077v-5.449h-1.419C309.744,202.837,308.104,203.007,306.903,203.347z"/>
	<path fill="#FFFFFF" d="M355.497,218.965l-8.034-10.877c2.952-1.21,5.072-2.489,6.36-3.831c1.287-1.345,1.931-3.068,1.931-5.169
		c0-2.404-0.914-4.417-2.741-6.036c-1.827-1.616-4.062-2.426-6.716-2.426c-2.555,0-4.794,0.813-6.716,2.441
		c-1.92,1.629-2.881,3.711-2.881,6.247c0,2.309,0.898,4.608,2.698,6.898c-6.002,2.634-9.004,6.578-9.004,11.841
		c0,3.805,1.336,6.979,4.006,9.514c2.669,2.535,6.046,3.806,10.137,3.806c3.577,0,7.08-1.364,10.505-4.089l2.613,3.462h9v-4.938
		h-6.021l-2.072-2.668c1.591-1.988,2.897-4.812,3.919-8.462h4.174v-4.829h-8.093C357.957,213.408,356.936,216.448,355.497,218.965z
		 M343.43,196.363c0.794-0.721,1.79-1.08,2.98-1.08c1.326,0,2.339,0.375,3.04,1.121c0.699,0.75,1.049,1.588,1.049,2.514
		c0,1.005-0.411,1.922-1.235,2.753c-0.823,0.834-2.369,1.723-4.643,2.668l-0.34-0.51c-1.362-2.083-2.044-3.635-2.044-4.656
		C342.236,198.021,342.635,197.082,343.43,196.363z M345.135,226.459c-2.462,0-4.555-0.863-6.274-2.6
		c-1.724-1.729-2.585-3.752-2.585-6.062c0-3.483,2.044-6.133,6.132-7.95l9.598,13.46
		C349.941,225.41,347.651,226.459,345.135,226.459z"/>
	<path fill="#FFFFFF" d="M408.085,195.708h4.937v-4.457h-20.188v4.457h4.772l-10.782,30.099h-4.779v4.939h15.56v-4.939h-4.799
		l3.022-8.942h14.229l2.937,8.942h-4.913v4.939h15.475v-4.939h-4.418L408.085,195.708z M397.299,212.233l5.473-16.525h0.54
		l5.257,16.525H397.299z"/>
	<path fill="#FFFFFF" d="M451.609,212.548c0-2.346-0.181-4.132-0.542-5.354c-0.359-1.219-1.118-2.252-2.287-3.094
		c-1.159-0.841-2.632-1.263-4.413-1.263c-2.857,0-6.021,1.25-9.483,3.749v-3.324h-10.221v4.798h4.826v17.889h-4.826v4.798h14.963
		v-4.798h-4.742v-14.707c3.011-2.328,5.706-3.494,8.095-3.494c0.906,0,1.674,0.318,2.3,0.951c0.624,0.636,0.936,1.991,0.936,4.076
		v17.972h10.023v-4.798h-4.627L451.609,212.548L451.609,212.548z"/>
	<path fill="#FFFFFF" d="M484.942,212.548c0-2.346-0.181-4.132-0.54-5.354c-0.359-1.219-1.12-2.252-2.287-3.094
		c-1.161-0.841-2.634-1.263-4.413-1.263c-2.858,0-6.021,1.25-9.483,3.749v-3.324h-10.222v4.798h4.826v17.889h-4.826v4.798h14.963
		v-4.798h-4.741v-14.707c3.011-2.328,5.706-3.494,8.091-3.494c0.909,0,1.677,0.318,2.302,0.951c0.624,0.636,0.938,1.991,0.938,4.076
		v17.972h10.023v-4.798h-4.629L484.942,212.548L484.942,212.548z"/>
	<path fill="#FFFFFF" d="M516.629,203.262h-10.251v4.798h4.856v14.881c-2.84,2.385-5.509,3.574-8.006,3.574
		c-0.836,0-1.525-0.227-2.074-0.681c-0.545-0.453-0.881-1.033-0.994-1.731c-0.112-0.699-0.17-2.063-0.17-4.09v-16.752h-9.285v4.798
		h3.891v12.638c0,2.838,0.198,4.897,0.598,6.171c0.396,1.281,1.196,2.32,2.399,3.125c1.202,0.807,2.72,1.21,4.558,1.21
		c2.896,0,5.924-1.204,9.085-3.606v3.149h10.135v-4.798h-4.74L516.629,203.262L516.629,203.262z"/>
	<path fill="#FFFFFF" d="M547.436,213.229c0-2.232-0.127-3.861-0.384-4.886c-0.256-1.021-0.752-1.972-1.489-2.854
		c-0.74-0.879-1.861-1.597-3.364-2.158c-1.508-0.558-3.29-0.838-5.353-0.838c-5.621,0-9.58,2.142-11.867,6.42l5.168,1.361
		c1.211-2.158,3.17-3.235,5.874-3.235c1.573,0,2.845,0.299,3.819,0.907c0.978,0.608,1.6,1.288,1.859,2.047
		c0.267,0.753,0.396,1.833,0.396,3.235v2.725c-2.402-1.553-4.893-2.327-7.466-2.327c-2.764,0-5.127,0.844-7.084,2.526
		c-1.963,1.685-2.938,3.805-2.938,6.358c0,2.539,0.922,4.621,2.769,6.25c1.843,1.625,4.019,2.441,6.519,2.441
		c3.213,0,6.132-1.273,8.744-3.806v3.349h9.427v-4.798h-4.63V213.229L547.436,213.229z M542.097,223.734
		c-2.33,2.195-4.796,3.295-7.409,3.295c-1.515,0-2.712-0.438-3.594-1.309c-0.878-0.869-1.319-1.949-1.319-3.234
		c0-1.383,0.504-2.512,1.508-3.383c1-0.869,2.249-1.306,3.746-1.306c2.387,0,4.738,0.911,7.068,2.726V223.734L542.097,223.734z"/>
	<polygon fill="#FFFFFF" points="564.244,191.251 553.964,191.251 553.964,196.048 558.849,196.048 558.849,225.948 
		553.964,225.948 553.964,230.746 568.445,230.746 568.445,225.948 564.244,225.948 	"/>
	<path fill="#FFFFFF" d="M615.295,223.066c-2.499,1.959-5.271,2.938-8.317,2.938c-3.712,0-6.919-1.411-9.628-4.23
		c-2.703-2.818-4.058-6.453-4.058-10.901c0-4.334,1.264-7.922,3.791-10.764c2.526-2.838,5.759-4.259,9.693-4.259
		c2.611,0,5.103,0.706,7.47,2.117c2.362,1.411,4.115,3.402,5.251,5.976h5.111v-12.691h-5.111v3.606
		c-3.521-2.822-7.862-4.23-13.03-4.23c-5.85,0-10.593,1.855-14.227,5.566c-3.636,3.708-5.453,8.697-5.453,14.962
		c0,5.717,1.809,10.515,5.425,14.396c3.614,3.879,8.415,5.821,14.394,5.821c4.566,0,8.604-1.21,12.114-3.619
		c3.507-2.417,5.842-5.817,6.999-10.21l-5.143-2.866C619.554,218.311,617.795,221.109,615.295,223.066z"/>
	<path fill="#FFFFFF" d="M645.164,202.493c-4.029,0-7.447,1.361-10.246,4.076c-2.805,2.715-4.203,6.197-4.203,10.437
		c0,4.239,1.386,7.721,4.158,10.448c2.774,2.726,6.203,4.089,10.291,4.089c3.977,0,7.379-1.345,10.209-4.032
		c2.832-2.69,4.246-6.188,4.246-10.505c0-4.318-1.419-7.815-4.259-10.493C652.521,203.835,649.122,202.493,645.164,202.493z
		 M651.399,223.633c-1.676,1.752-3.753,2.628-6.235,2.628c-2.439,0-4.506-0.866-6.203-2.603c-1.694-1.732-2.542-3.956-2.542-6.668
		c0-2.618,0.826-4.817,2.474-6.6c1.646-1.78,3.738-2.671,6.271-2.671c2.426,0,4.487,0.873,6.191,2.615
		c1.701,1.745,2.555,3.963,2.555,6.656C653.91,219.667,653.077,221.879,651.399,223.633z"/>
	<path fill="#FFFFFF" d="M663.393,203.262v4.798h4.828v17.889h-4.828v4.798h14.967v-4.798h-4.743v-14.707
		c3.011-2.328,5.709-3.494,8.096-3.494c0.906,0,1.672,0.318,2.296,0.951c0.625,0.636,0.938,1.991,0.938,4.076v17.972h10.021v-4.798
		h-4.626v-13.4c0-2.346-0.18-4.132-0.542-5.354c-0.358-1.219-1.118-2.252-2.285-3.094c-1.16-0.841-2.634-1.263-4.417-1.263
		c-2.854,0-6.018,1.25-9.481,3.749v-3.324h-10.224V203.262z"/>
	<path fill="#FFFFFF" d="M711.381,225.948h-5.227v-17.917h4.713v-4.771h-4.713v-3.962c0-1.83,0.152-3.021,0.454-3.579
		c0.307-0.558,0.86-0.834,1.678-0.834c1.192,0,1.884,0.878,2.068,2.64l4.803-0.737c-0.664-4.221-3.076-6.332-7.241-6.332
		c-1.932,0-3.605,0.636-5.024,1.912c-1.419,1.276-2.133,3.585-2.133,6.927v3.966h-4.001v4.77h4.001v17.917h-4.001v4.798h14.623
		V225.948L711.381,225.948z"/>
	<path fill="#FFFFFF" d="M720.168,227.607c2.979,2.621,6.572,3.936,10.775,3.936c2.705,0,5.301-0.583,7.78-1.745
		c2.477-1.169,4.493-2.948,6.046-5.354l-4.771-2.102c-2.193,3.03-5.177,4.542-8.942,4.542c-2.596,0-4.721-0.78-6.392-2.356
		c-1.663-1.57-2.668-3.625-3.009-6.157h23.111c-0.112-5.265-1.668-9.226-4.67-11.885c-3.001-2.659-6.346-3.991-10.039-3.991
		c-3.765,0-7.102,1.364-10.006,4.092c-2.903,2.725-4.36,6.196-4.36,10.42C715.693,221.453,717.185,224.986,720.168,227.607z
		 M724.666,208.982c1.534-1.408,3.383-2.114,5.541-2.114c2.362,0,4.362,0.781,5.988,2.34c1.628,1.566,2.633,3.308,3.008,5.237
		h-17.346C722.199,212.214,723.134,210.394,724.666,208.982z"/>
	<path fill="#FFFFFF" d="M765.13,225.948h-5.993V219.9c0-3.748,0.327-6.344,0.979-7.793c0.653-1.449,1.659-2.448,3.01-2.996
		c1.354-0.548,3.403-0.825,6.151-0.825h1.077v-5.449h-1.419c-2.084,0-3.728,0.17-4.928,0.51c-1.201,0.34-2.342,1.04-3.421,2.101
		c-1.08,1.062-1.921,2.394-2.529,4.003v-6.19h-9.85v4.798h5.534v17.889h-5.534v4.798h16.922V225.948L765.13,225.948z"/>
	<path fill="#FFFFFF" d="M774.854,227.607c2.979,2.621,6.574,3.936,10.776,3.936c2.704,0,5.299-0.583,7.779-1.745
		c2.478-1.169,4.496-2.948,6.046-5.354l-4.771-2.102c-2.191,3.03-5.177,4.542-8.938,4.542c-2.596,0-4.727-0.78-6.393-2.356
		c-1.665-1.57-2.67-3.625-3.012-6.157h23.113c-0.113-5.265-1.669-9.226-4.67-11.885c-3-2.659-6.348-3.991-10.037-3.991
		c-3.767,0-7.103,1.364-10.008,4.092c-2.906,2.725-4.359,6.196-4.359,10.42C770.381,221.453,771.871,224.986,774.854,227.607z
		 M779.354,208.982c1.532-1.408,3.381-2.114,5.538-2.114c2.364,0,4.364,0.781,5.989,2.34c1.629,1.566,2.634,3.308,3.01,5.237
		h-17.347C776.886,212.214,777.821,210.394,779.354,208.982z"/>
	<path fill="#FFFFFF" d="M818.139,225.948h-4.74v-14.707c3.012-2.328,5.705-3.494,8.091-3.494c0.909,0,1.679,0.318,2.301,0.951
		c0.626,0.636,0.936,1.991,0.936,4.077v17.971h10.025v-4.798h-4.631v-13.4c0-2.346-0.178-4.132-0.537-5.354
		c-0.362-1.219-1.121-2.252-2.288-3.094c-1.162-0.841-2.634-1.263-4.412-1.263c-2.859,0-6.02,1.25-9.483,3.749v-3.324h-10.223v4.798
		h4.829v17.889h-4.829v4.798h14.963L818.139,225.948L818.139,225.948z"/>
	<path fill="#FFFFFF" d="M851.019,231.543c6.153,0,10.456-2.736,12.921-8.206l-4.459-2.101c-1.704,3.594-4.446,5.393-8.234,5.393
		c-2.728,0-4.807-0.988-6.247-2.964c-1.438-1.979-2.157-4.263-2.157-6.858c0-2.783,0.761-5.03,2.271-6.747
		c1.517-1.71,3.484-2.567,5.905-2.567c1.817,0,3.411,0.529,4.783,1.591c1.375,1.062,2.184,2.583,2.43,4.571h4.824v-10.393h-4.824
		v1.931c-2.104-1.798-4.676-2.7-7.725-2.7c-3.556,0-6.7,1.352-9.427,4.048c-2.725,2.7-4.089,6.121-4.089,10.266
		c0,3.879,1.249,7.307,3.749,10.275C843.237,230.053,846.668,231.543,851.019,231.543z"/>
	<path fill="#FFFFFF" d="M871.819,227.607c2.979,2.621,6.568,3.936,10.771,3.936c2.709,0,5.305-0.583,7.78-1.745
		c2.48-1.169,4.494-2.948,6.05-5.354l-4.769-2.102c-2.197,3.03-5.179,4.542-8.948,4.542c-2.591,0-4.72-0.78-6.387-2.356
		c-1.668-1.57-2.668-3.625-3.009-6.157h23.111c-0.113-5.265-1.673-9.226-4.67-11.885c-3-2.659-6.347-3.991-10.037-3.991
		c-3.77,0-7.104,1.364-10.008,4.092c-2.909,2.725-4.361,6.196-4.361,10.42C867.345,221.453,868.836,224.986,871.819,227.607z
		 M876.317,208.982c1.533-1.408,3.379-2.114,5.536-2.114c2.366,0,4.362,0.781,5.992,2.34c1.624,1.566,2.629,3.308,3.01,5.237
		h-17.352C873.847,212.214,874.785,210.394,876.317,208.982z"/>
	<path fill="#FFFFFF" d="M667.604,155.872C643.496,68.83,563.717,4.925,468.999,4.925c-94.715,0-174.495,63.905-198.603,150.947
		H11.064v110.257h259.331c24.108,87.041,103.888,150.946,198.603,150.946c94.718,0,174.498-63.905,198.605-150.946h259.331V155.872
		H667.604z M478.411,70.666h37.599c21.722,0,30.1,6.505,30.1,20.067c0,10.144-5.622,15.657-15.877,17.641v0.331
		c12.789,1.544,18.854,9.924,18.854,19.406c0,11.908-8.709,22.162-30.322,22.162h-40.353V70.666L478.411,70.666z M388.66,70.666
		h37.599c21.722,0,30.101,6.505,30.101,20.067c0,10.144-5.621,15.657-15.876,17.641v0.331c12.791,1.544,18.853,9.924,18.853,19.406
		c0,11.908-8.708,22.162-30.321,22.162H388.66V70.666z M421.779,380.848h-33.132v-10.373l20.899-61.309
		c1.858-5.266,2.479-9.908,2.479-15.328v-8.824c0-6.192-2.014-9.134-6.193-9.134s-6.193,2.94-6.193,9.134v12.851h-9.598v-13.005
		c0-11.146,4.952-16.721,16.254-16.721c10.219,0,15.328,6.348,15.328,16.565v10.837c0,4.18-0.929,10.218-2.476,14.709
		l-21.521,61.926h24.151L421.779,380.848L421.779,380.848z M463.892,365.21c0,14.088-8.979,16.565-15.947,16.565
		c-6.966,0-15.946-2.479-15.946-16.565v-80.506c0-14.088,8.98-16.565,15.946-16.565c6.968,0,15.947,2.479,15.947,16.565V365.21z
		 M497.487,380.848h-10.22V280.679c-2.32,2.013-7.275,5.419-10.219,6.966v-10.373c3.717-1.701,8.98-5.728,11.611-8.203h8.826
		L497.487,380.848L497.487,380.848z M549.354,310.404c0,8.205-2.479,10.062-8.053,12.386v0.31c5.572,0.928,8.053,3.405,8.053,10.684
		V364.9c0,10.063-4.646,16.875-15.948,16.875c-11.304,0-15.945-6.812-15.945-16.875v-31.117c0-7.277,2.476-9.756,8.051-10.684v-0.31
		c-5.575-2.323-8.051-4.181-8.051-12.386v-25.393c0-10.062,4.644-16.873,15.945-16.873s15.948,6.812,15.948,16.873V310.404z
		 M918.871,258.064H669.668H268.332H19.128v-94.128h249.204h401.336h249.203V258.064z"/>
	<path fill="#FFFFFF" d="M533.404,275.88c-3.868,0-6.349,3.251-6.349,6.966v28.952c0,3.716,2.479,6.966,6.349,6.966
		c3.871,0,6.347-3.25,6.347-6.966v-28.952C539.751,279.131,537.275,275.88,533.404,275.88z"/>
	<path fill="#FFFFFF" d="M533.404,326.505c-3.868,0-6.349,3.251-6.349,6.968v33.596c0,3.716,2.479,6.967,6.349,6.967
		c3.871,0,6.347-3.251,6.347-6.967v-33.596C539.751,329.756,537.275,326.505,533.404,326.505z"/>
	<path fill="#FFFFFF" d="M447.944,275.88c-6.349,0-6.349,4.953-6.349,7.741v82.672c0,2.786,0,7.741,6.349,7.741
		c6.347,0,6.347-4.955,6.347-7.741v-82.672C454.291,280.833,454.291,275.88,447.944,275.88z"/>
</g>
</svg>
